LAB4/waveform.vcd
$version Generated by VerilatedVcd $end
$timescale 1s $end

 $scope module TOP $end
  $var wire  1 /! clk $end
  $var wire 32 1! r[0] [31:0] $end
  $var wire 32 ;! r[10] [31:0] $end
  $var wire 32 <! r[11] [31:0] $end
  $var wire 32 =! r[12] [31:0] $end
  $var wire 32 >! r[13] [31:0] $end
  $var wire 32 ?! r[14] [31:0] $end
  $var wire 32 @! r[15] [31:0] $end
  $var wire 32 A! r[16] [31:0] $end
  $var wire 32 B! r[17] [31:0] $end
  $var wire 32 C! r[18] [31:0] $end
  $var wire 32 D! r[19] [31:0] $end
  $var wire 32 2! r[1] [31:0] $end
  $var wire 32 E! r[20] [31:0] $end
  $var wire 32 F! r[21] [31:0] $end
  $var wire 32 G! r[22] [31:0] $end
  $var wire 32 H! r[23] [31:0] $end
  $var wire 32 I! r[24] [31:0] $end
  $var wire 32 J! r[25] [31:0] $end
  $var wire 32 K! r[26] [31:0] $end
  $var wire 32 L! r[27] [31:0] $end
  $var wire 32 M! r[28] [31:0] $end
  $var wire 32 N! r[29] [31:0] $end
  $var wire 32 3! r[2] [31:0] $end
  $var wire 32 O! r[30] [31:0] $end
  $var wire 32 P! r[31] [31:0] $end
  $var wire 32 4! r[3] [31:0] $end
  $var wire 32 5! r[4] [31:0] $end
  $var wire 32 6! r[5] [31:0] $end
  $var wire 32 7! r[6] [31:0] $end
  $var wire 32 8! r[7] [31:0] $end
  $var wire 32 9! r[8] [31:0] $end
  $var wire 32 :! r[9] [31:0] $end
  $var wire  1 0! start $end
  $scope module PipelineCPU $end
   $var wire 32 ~ ALUA [31:0] $end
   $var wire 32 !! ALUB [31:0] $end
   $var wire  4 4 ALUCtl [3:0] $end
   $var wire  2 7 EX_ALUOp [1:0] $end
   $var wire 32 "! EX_ALUOut [31:0] $end
   $var wire  1 : EX_ALUSrc $end
   $var wire  1 = EX_JumpSrc $end
   $var wire 32 , EX_PC [31:0] $end
   $var wire  1 %! EX_PCSrc $end
   $var wire 32 0 EX_PCTarget [31:0] $end
   $var wire 32 - EX_PCaddfour [31:0] $end
   $var wire  1 8 EX_branch $end
   $var wire  2 5 EX_branchType [1:0] $end
   $var wire  2 K EX_forward1 [1:0] $end
   $var wire  2 L EX_forward2 [1:0] $end
   $var wire 32 . EX_imm [31:0] $end
   $var wire 32 / EX_inst [31:0] $end
   $var wire  1 < EX_jump $end
   $var wire  1 $! EX_memRead $end
   $var wire  1 9 EX_memWrite $end
   $var wire  2 6 EX_memtoReg [1:0] $end
   $var wire 32 * EX_readData1 [31:0] $end
   $var wire 32 + EX_readData2 [31:0] $end
   $var wire  5 1 EX_readReg1 [4:0] $end
   $var wire  5 2 EX_readReg2 [4:0] $end
   $var wire  1 ; EX_regWrite $end
   $var wire 32 #! EX_writeData [31:0] $end
   $var wire  5 3 EX_writeReg [4:0] $end
   $var wire  1 ,! IDEX_flush $end
   $var wire  2 v ID_ALUOp [1:0] $end
   $var wire  1 z ID_ALUSrc $end
   $var wire  1 } ID_JumpSrc $end
   $var wire 32 ' ID_PC [31:0] $end
   $var wire 32 ( ID_PCaddfour [31:0] $end
   $var wire  1 w ID_branch $end
   $var wire  2 t ID_branchType [1:0] $end
   $var wire 32 ) ID_imm [31:0] $end
   $var wire 32 & ID_inst [31:0] $end
   $var wire  1 | ID_jump $end
   $var wire  1 x ID_memRead $end
   $var wire  1 y ID_memWrite $end
   $var wire  2 u ID_memtoReg [1:0] $end
   $var wire 32 S! ID_readData1 [31:0] $end
   $var wire 32 T! ID_readData2 [31:0] $end
   $var wire  1 { ID_regWrite $end
   $var wire  1 %! IFID_flush $end
   $var wire  1 +! IFID_stall $end
   $var wire 32 Q! IF_JumpSrcOut [31:0] $end
   $var wire 32 $ IF_PC [31:0] $end
   $var wire 32 R! IF_PCSrcOut [31:0] $end
   $var wire 32 % IF_PCaddfour [31:0] $end
   $var wire 32 # IF_inst [31:0] $end
   $var wire 32 (! MEM_ALUOut [31:0] $end
   $var wire 32 ? MEM_PCaddfour [31:0] $end
   $var wire  1 )! MEM_memRead $end
   $var wire  1 B MEM_memWrite $end
   $var wire  2 A MEM_memtoReg [1:0] $end
   $var wire 32 W! MEM_readData [31:0] $end
   $var wire  1 C MEM_regWrite $end
   $var wire 32 > MEM_writeData [31:0] $end
   $var wire  5 @ MEM_writeReg [4:0] $end
   $var wire 32 D WB_ALUOut [31:0] $end
   $var wire 32 E WB_PCaddfour [31:0] $end
   $var wire  2 I WB_memtoReg [1:0] $end
   $var wire 32 F WB_readData [31:0] $end
   $var wire  1 J WB_regWrite $end
   $var wire 32 G WB_result [31:0] $end
   $var wire  5 H WB_writeReg [4:0] $end
   $var wire  1 V! andOut $end
   $var wire  1 '! blt $end
   $var wire  1 U! branchCompOut $end
   $var wire  1 /! clk $end
   $var wire 32 1! r[0] [31:0] $end
   $var wire 32 ;! r[10] [31:0] $end
   $var wire 32 <! r[11] [31:0] $end
   $var wire 32 =! r[12] [31:0] $end
   $var wire 32 >! r[13] [31:0] $end
   $var wire 32 ?! r[14] [31:0] $end
   $var wire 32 @! r[15] [31:0] $end
   $var wire 32 A! r[16] [31:0] $end
   $var wire 32 B! r[17] [31:0] $end
   $var wire 32 C! r[18] [31:0] $end
   $var wire 32 D! r[19] [31:0] $end
   $var wire 32 2! r[1] [31:0] $end
   $var wire 32 E! r[20] [31:0] $end
   $var wire 32 F! r[21] [31:0] $end
   $var wire 32 G! r[22] [31:0] $end
   $var wire 32 H! r[23] [31:0] $end
   $var wire 32 I! r[24] [31:0] $end
   $var wire 32 J! r[25] [31:0] $end
   $var wire 32 K! r[26] [31:0] $end
   $var wire 32 L! r[27] [31:0] $end
   $var wire 32 M! r[28] [31:0] $end
   $var wire 32 N! r[29] [31:0] $end
   $var wire 32 3! r[2] [31:0] $end
   $var wire 32 O! r[30] [31:0] $end
   $var wire 32 P! r[31] [31:0] $end
   $var wire 32 4! r[3] [31:0] $end
   $var wire 32 5! r[4] [31:0] $end
   $var wire 32 6! r[5] [31:0] $end
   $var wire 32 7! r[6] [31:0] $end
   $var wire 32 8! r[7] [31:0] $end
   $var wire 32 9! r[8] [31:0] $end
   $var wire 32 :! r[9] [31:0] $end
   $var wire  1 *! stallPC $end
   $var wire  1 0! start $end
   $var wire  1 &! zero $end
   $scope module m_ALU $end
    $var wire 32 ~ A [31:0] $end
    $var wire 32 "! ALUOut [31:0] $end
    $var wire  4 4 ALUctl [3:0] $end
    $var wire 32 !! B [31:0] $end
    $var wire  1 '! blt $end
    $var wire  1 &! zero $end
   $upscope $end
   $scope module m_ALUCtrlEX $end
    $var wire  4 4 ALUCtl [3:0] $end
    $var wire  2 7 ALUOp [1:0] $end
    $var wire  3 N funct3 [2:0] $end
    $var wire  1 M funct7 $end
   $upscope $end
   $scope module m_Adder_PCIF $end
    $var wire 32 $ a [31:0] $end
    $var wire 32 X! b [31:0] $end
    $var wire 32 % sum [31:0] $end
   $upscope $end
   $scope module m_Adder_PCaddEX $end
    $var wire 32 , a [31:0] $end
    $var wire 32 . b [31:0] $end
    $var wire 32 0 sum [31:0] $end
   $upscope $end
   $scope module m_BranchComp $end
    $var wire  1 '! blt $end
    $var wire  1 U! out $end
    $var wire  2 5 sel [1:0] $end
    $var wire  1 &! zero $end
   $upscope $end
   $scope module m_Control $end
    $var wire  2 v ALUOp [1:0] $end
    $var wire  1 z ALUSrc $end
    $var wire  1 } JumpSrc $end
    $var wire  1 w branch $end
    $var wire  2 t branchType [1:0] $end
    $var wire 13 -! ctrl [12:0] $end
    $var wire  3 P funct3 [2:0] $end
    $var wire  1 | jump $end
    $var wire  1 x memRead $end
    $var wire  1 y memWrite $end
    $var wire  2 u memtoReg [1:0] $end
    $var wire  7 O opcode [6:0] $end
    $var wire  1 { regWrite $end
   $upscope $end
   $scope module m_DataMemory $end
    $var wire 32 (! address [31:0] $end
    $var wire  1 /! clk $end
    $var wire  1 )! memRead $end
    $var wire  1 B memWrite $end
    $var wire 32 W! readData [31:0] $end
    $var wire  1 0! rst $end
    $var wire 32 > writeData [31:0] $end
   $upscope $end
   $scope module m_EXMEM $end
    $var wire 32 "! EX_ALUOut [31:0] $end
    $var wire 32 - EX_PCaddfour [31:0] $end
    $var wire  1 $! EX_memRead $end
    $var wire  1 9 EX_memWrite $end
    $var wire  2 6 EX_memtoReg [1:0] $end
    $var wire  1 ; EX_regWrite $end
    $var wire 32 #! EX_writeData [31:0] $end
    $var wire  5 3 EX_writeReg [4:0] $end
    $var wire 32 (! MEM_ALUOut [31:0] $end
    $var wire 32 ? MEM_PCaddfour [31:0] $end
    $var wire  1 )! MEM_memRead $end
    $var wire  1 B MEM_memWrite $end
    $var wire  2 A MEM_memtoReg [1:0] $end
    $var wire  1 C MEM_regWrite $end
    $var wire 32 > MEM_writeData [31:0] $end
    $var wire  5 @ MEM_writeReg [4:0] $end
    $var wire  1 /! clk $end
   $upscope $end
   $scope module m_Forward $end
    $var wire  2 K EX_forward1 [1:0] $end
    $var wire  2 L EX_forward2 [1:0] $end
    $var wire  5 1 EX_readReg1 [4:0] $end
    $var wire  5 2 EX_readReg2 [4:0] $end
    $var wire  1 C MEM_regWrite $end
    $var wire  5 @ MEM_writeReg [4:0] $end
    $var wire  1 J WB_regWrite $end
    $var wire  5 H WB_writeReg [4:0] $end
   $upscope $end
   $scope module m_Hazard $end
    $var wire  1 %! EX_PCSrc $end
    $var wire  2 6 EX_memtoReg [1:0] $end
    $var wire  5 3 EX_writeReg [4:0] $end
    $var wire  1 ,! IDEX_flush $end
    $var wire  5 Q ID_readReg1 [4:0] $end
    $var wire  5 R ID_readReg2 [4:0] $end
    $var wire  1 %! IFID_flush $end
    $var wire  1 +! IFID_stall $end
    $var wire  1 .! lwStall $end
    $var wire  1 *! stallPC $end
   $upscope $end
   $scope module m_IDEX $end
    $var wire  2 7 EX_ALUOp [1:0] $end
    $var wire  1 : EX_ALUSrc $end
    $var wire  1 = EX_JumpSrc $end
    $var wire 32 , EX_PC [31:0] $end
    $var wire 32 - EX_PCaddfour [31:0] $end
    $var wire  1 8 EX_branch $end
    $var wire  2 5 EX_branchType [1:0] $end
    $var wire 32 . EX_imm [31:0] $end
    $var wire 32 / EX_inst [31:0] $end
    $var wire  1 < EX_jump $end
    $var wire  1 $! EX_memRead $end
    $var wire  1 9 EX_memWrite $end
    $var wire  2 6 EX_memtoReg [1:0] $end
    $var wire 32 * EX_readData1 [31:0] $end
    $var wire 32 + EX_readData2 [31:0] $end
    $var wire  5 1 EX_readReg1 [4:0] $end
    $var wire  5 2 EX_readReg2 [4:0] $end
    $var wire  1 ; EX_regWrite $end
    $var wire  5 3 EX_writeReg [4:0] $end
    $var wire  1 ,! IDEX_flush $end
    $var wire  2 v ID_ALUOp [1:0] $end
    $var wire  1 z ID_ALUSrc $end
    $var wire  1 } ID_JumpSrc $end
    $var wire 32 ' ID_PC [31:0] $end
    $var wire 32 ( ID_PCaddfour [31:0] $end
    $var wire  1 w ID_branch $end
    $var wire  2 t ID_branchType [1:0] $end
    $var wire 32 ) ID_imm [31:0] $end
    $var wire 32 & ID_inst [31:0] $end
    $var wire  1 | ID_jump $end
    $var wire  1 x ID_memRead $end
    $var wire  1 y ID_memWrite $end
    $var wire  2 u ID_memtoReg [1:0] $end
    $var wire 32 S! ID_readData1 [31:0] $end
    $var wire 32 T! ID_readData2 [31:0] $end
    $var wire  5 Q ID_readReg1 [4:0] $end
    $var wire  5 R ID_readReg2 [4:0] $end
    $var wire  1 { ID_regWrite $end
    $var wire  5 S ID_writeReg [4:0] $end
    $var wire  1 /! clk $end
   $upscope $end
   $scope module m_IFID $end
    $var wire 32 ' ID_PC [31:0] $end
    $var wire 32 ( ID_PCaddfour [31:0] $end
    $var wire 32 & ID_inst [31:0] $end
    $var wire  1 %! IFID_flush $end
    $var wire  1 +! IFID_stall $end
    $var wire 32 $ IF_PC [31:0] $end
    $var wire 32 % IF_PCaddfour [31:0] $end
    $var wire 32 # IF_inst [31:0] $end
    $var wire  1 /! clk $end
   $upscope $end
   $scope module m_ImmGen $end
    $var wire 32 ) imm [31:0] $end
    $var wire 32 & inst [31:0] $end
    $var wire  7 O opcode [6:0] $end
   $upscope $end
   $scope module m_InstMem $end
    $var wire 32 # inst [31:0] $end
    $var wire 32 $ readAddr [31:0] $end
   $upscope $end
   $scope module m_MEMWB $end
    $var wire 32 (! MEM_ALUOut [31:0] $end
    $var wire 32 ? MEM_PCaddfour [31:0] $end
    $var wire  2 A MEM_memtoReg [1:0] $end
    $var wire 32 W! MEM_readData [31:0] $end
    $var wire  1 C MEM_regWrite $end
    $var wire  5 @ MEM_writeReg [4:0] $end
    $var wire 32 D WB_ALUOut [31:0] $end
    $var wire 32 E WB_PCaddfour [31:0] $end
    $var wire  2 I WB_memtoReg [1:0] $end
    $var wire 32 F WB_readData [31:0] $end
    $var wire  1 J WB_regWrite $end
    $var wire  5 H WB_writeReg [4:0] $end
    $var wire  1 /! clk $end
   $upscope $end
   $scope module m_Mux_ALUSrcEX $end
    $var wire 32 !! out [31:0] $end
    $var wire 32 #! s0 [31:0] $end
    $var wire 32 . s1 [31:0] $end
    $var wire  1 : sel $end
    $var wire 32 Y! size [31:0] $end
   $upscope $end
   $scope module m_Mux_ForwardAEX $end
    $var wire 32 ~ out [31:0] $end
    $var wire 32 * s0 [31:0] $end
    $var wire 32 G s1 [31:0] $end
    $var wire 32 (! s2 [31:0] $end
    $var wire  2 K sel [1:0] $end
    $var wire 32 Y! size [31:0] $end
   $upscope $end
   $scope module m_Mux_ForwardBEX $end
    $var wire 32 #! out [31:0] $end
    $var wire 32 + s0 [31:0] $end
    $var wire 32 G s1 [31:0] $end
    $var wire 32 (! s2 [31:0] $end
    $var wire  2 L sel [1:0] $end
    $var wire 32 Y! size [31:0] $end
   $upscope $end
   $scope module m_Mux_JumpSrcIF $end
    $var wire 32 Q! out [31:0] $end
    $var wire 32 0 s0 [31:0] $end
    $var wire 32 "! s1 [31:0] $end
    $var wire  1 = sel $end
    $var wire 32 Y! size [31:0] $end
   $upscope $end
   $scope module m_Mux_PCSrcIF $end
    $var wire 32 R! out [31:0] $end
    $var wire 32 % s0 [31:0] $end
    $var wire 32 Q! s1 [31:0] $end
    $var wire  1 %! sel $end
    $var wire 32 Y! size [31:0] $end
   $upscope $end
   $scope module m_Mux_WB $end
    $var wire 32 G out [31:0] $end
    $var wire 32 D s0 [31:0] $end
    $var wire 32 F s1 [31:0] $end
    $var wire 32 E s2 [31:0] $end
    $var wire  2 I sel [1:0] $end
    $var wire 32 Y! size [31:0] $end
   $upscope $end
   $scope module m_PC $end
    $var wire  1 /! clk $end
    $var wire 32 R! pc_i [31:0] $end
    $var wire 32 $ pc_o [31:0] $end
    $var wire  1 0! rst $end
    $var wire  1 *! stallPC $end
   $upscope $end
   $scope module m_Register $end
    $var wire  1 /! clk $end
    $var wire 32 S! readData1 [31:0] $end
    $var wire 32 T! readData2 [31:0] $end
    $var wire  5 Q readReg1 [4:0] $end
    $var wire  5 R readReg2 [4:0] $end
    $var wire  1 J regWrite $end
    $var wire 32 T regs[0] [31:0] $end
    $var wire 32 ^ regs[10] [31:0] $end
    $var wire 32 _ regs[11] [31:0] $end
    $var wire 32 ` regs[12] [31:0] $end
    $var wire 32 a regs[13] [31:0] $end
    $var wire 32 b regs[14] [31:0] $end
    $var wire 32 c regs[15] [31:0] $end
    $var wire 32 d regs[16] [31:0] $end
    $var wire 32 e regs[17] [31:0] $end
    $var wire 32 f regs[18] [31:0] $end
    $var wire 32 g regs[19] [31:0] $end
    $var wire 32 U regs[1] [31:0] $end
    $var wire 32 h regs[20] [31:0] $end
    $var wire 32 i regs[21] [31:0] $end
    $var wire 32 j regs[22] [31:0] $end
    $var wire 32 k regs[23] [31:0] $end
    $var wire 32 l regs[24] [31:0] $end
    $var wire 32 m regs[25] [31:0] $end
    $var wire 32 n regs[26] [31:0] $end
    $var wire 32 o regs[27] [31:0] $end
    $var wire 32 p regs[28] [31:0] $end
    $var wire 32 q regs[29] [31:0] $end
    $var wire 32 V regs[2] [31:0] $end
    $var wire 32 r regs[30] [31:0] $end
    $var wire 32 s regs[31] [31:0] $end
    $var wire 32 W regs[3] [31:0] $end
    $var wire 32 X regs[4] [31:0] $end
    $var wire 32 Y regs[5] [31:0] $end
    $var wire 32 Z regs[6] [31:0] $end
    $var wire 32 [ regs[7] [31:0] $end
    $var wire 32 \ regs[8] [31:0] $end
    $var wire 32 ] regs[9] [31:0] $end
    $var wire  1 0! rst $end
    $var wire 32 G writeData [31:0] $end
    $var wire  5 H writeReg [4:0] $end
   $upscope $end
  $upscope $end
 $upscope $end
$enddefinitions $end


#0
b00000000010000000000011000010011 #
b00000000000000000000000000000000 $
b00000000000000000000000000000100 %
b00000000000000000000000000000000 &
b00000000000000000000000000000000 '
b00000000000000000000000000000000 (
b00000000000000000000000000000000 )
b00000000000000000000000000000000 *
b00000000000000000000000000000000 +
b00000000000000000000000000000000 ,
b00000000000000000000000000000000 -
b00000000000000000000000000000000 .
b00000000000000000000000000000000 /
b00000000000000000000000000000000 0
b00000 1
b00000 2
b00000 3
b0010 4
b00 5
b00 6
b00 7
08
09
0:
0;
0<
0=
b00000000000000000000000000000000 >
b00000000000000000000000000000000 ?
b00000 @
b00 A
0B
0C
b00000000000000000000000000000000 D
b00000000000000000000000000000000 E
b00000000000000000000000000000000 F
b00000000000000000000000000000000 G
b00000 H
b00 I
0J
b00 K
b00 L
0M
b000 N
b0000000 O
b000 P
b00000 Q
b00000 R
b00000 S
b00000000000000000000000000000000 T
b00000000000000000000000000000000 U
b00000000000000000000000000000000 V
b00000000000000000000000000000000 W
b00000000000000000000000000000000 X
b00000000000000000000000000000000 Y
b00000000000000000000000000000000 Z
b00000000000000000000000000000000 [
b00000000000000000000000000000000 \
b00000000000000000000000000000000 ]
b00000000000000000000000000000000 ^
b00000000000000000000000000000000 _
b00000000000000000000000000000000 `
b00000000000000000000000000000000 a
b00000000000000000000000000000000 b
b00000000000000000000000000000000 c
b00000000000000000000000000000000 d
b00000000000000000000000000000000 e
b00000000000000000000000000000000 f
b00000000000000000000000000000000 g
b00000000000000000000000000000000 h
b00000000000000000000000000000000 i
b00000000000000000000000000000000 j
b00000000000000000000000000000000 k
b00000000000000000000000000000000 l
b00000000000000000000000000000000 m
b00000000000000000000000000000000 n
b00000000000000000000000000000000 o
b00000000000000000000000000000000 p
b00000000000000000000000000000000 q
b00000000000000000000000000000000 r
b00000000000000000000000000000000 s
b00 t
b00 u
b00 v
0w
0x
0y
0z
0{
0|
0}
b00000000000000000000000000000000 ~
b00000000000000000000000000000000 !!
b00000000000000000000000000000000 "!
b00000000000000000000000000000000 #!
0$!
0%!
1&!
0'!
b00000000000000000000000000000000 (!
0)!
0*!
0+!
0,!
b0000000000000 -!
0.!
0/!
10!
b00000000000000000000000000000000 1!
b00000000000000000000000000000000 2!
b00000000000000000000000000000000 3!
b00000000000000000000000000000000 4!
b00000000000000000000000000000000 5!
b00000000000000000000000000000000 6!
b00000000000000000000000000000000 7!
b00000000000000000000000000000000 8!
b00000000000000000000000000000000 9!
b00000000000000000000000000000000 :!
b00000000000000000000000000000000 ;!
b00000000000000000000000000000000 <!
b00000000000000000000000000000000 =!
b00000000000000000000000000000000 >!
b00000000000000000000000000000000 ?!
b00000000000000000000000000000000 @!
b00000000000000000000000000000000 A!
b00000000000000000000000000000000 B!
b00000000000000000000000000000000 C!
b00000000000000000000000000000000 D!
b00000000000000000000000000000000 E!
b00000000000000000000000000000000 F!
b00000000000000000000000000000000 G!
b00000000000000000000000000000000 H!
b00000000000000000000000000000000 I!
b00000000000000000000000000000000 J!
b00000000000000000000000000000000 K!
b00000000000000000000000000000000 L!
b00000000000000000000000000000000 M!
b00000000000000000000000000000000 N!
b00000000000000000000000000000000 O!
b00000000000000000000000000000000 P!
b00000000000000000000000000000000 Q!
b00000000000000000000000000000100 R!
b00000000000000000000000000000000 S!
b00000000000000000000000000000000 T!
1U!
0V!
b00000000000000000000000000000000 W!
b00000000000000000000000000000100 X!
b00000000000000000000000000100000 Y!
#1
b00000000110000000000000011101111 #
b00000000000000000000000000000100 $
b00000000000000000000000000001000 %
b00000000010000000000011000010011 &
b00000000000000000000000000000100 (
b00000000000000000000000000000100 )
b0010011 O
b00100 R
b01100 S
b00000000000000000000000010000000 V
b11 v
1z
1{
b1000100000011 -!
1/!
00!
b00000000000000000000000010000000 3!
b00000000000000000000000000001000 R!
#2
0/!
10!
#3
b00000000010000000000000011101111 #
b00000000000000000000000000001000 $
b00000000000000000000000000001100 %
b00000000110000000000000011101111 &
b00000000000000000000000000000100 '
b00000000000000000000000000001000 (
b00000000000000000000000000001100 )
b00000000000000000000000000000100 -
b00000000000000000000000000000100 .
b00000000010000000000011000010011 /
b00000000000000000000000000000100 0
b00100 2
b01100 3
b11 7
1:
1;
b1101111 O
b01100 R
b00001 S
b11 u
b00 v
1|
b00000000000000000000000000000100 !!
b00000000000000000000000000000100 "!
0&!
b1011100000100 -!
1/!
b00000000000000000000000000000100 Q!
b00000000000000000000000000001100 R!
0U!
#4
0/!
#5
b00000000000000000000000001101111 #
b00000000000000000000000000001100 $
b00000000000000000000000000010000 %
b00000000010000000000000011101111 &
b00000000000000000000000000001000 '
b00000000000000000000000000001100 (
b00000000000000000000000000000100 )
b00000000000000000000000000000100 ,
b00000000000000000000000000001000 -
b00000000000000000000000000001100 .
b00000000110000000000000011101111 /
b00000000000000000000000000010000 0
b01100 2
b00001 3
b11 6
b00 7
1<
b00000000000000000000000000000100 ?
b01100 @
1C
b10 L
b00100 R
b00000000000000000000000000001100 !!
b00000000000000000000000000001100 "!
b00000000000000000000000000000100 #!
1%!
b00000000000000000000000000000100 (!
1,!
1/!
b00000000000000000000000000010000 Q!
b00000000000000000000000000010000 R!
#6
0/!
#7
b11111111010000010000000100010011 #
b00000000000000000000000000010000 $
b00000000000000000000000000010100 %
b00000000000000000000000000000000 &
b00000000000000000000000000000000 '
b00000000000000000000000000000000 (
b00000000000000000000000000000000 )
b00000000000000000000000000000000 ,
b00000000000000000000000000000000 -
b00000000000000000000000000000000 .
b00000000000000000000000000000000 /
b00000000000000000000000000000000 0
b00000 2
b00000 3
b00 6
0:
0;
0<
b00000000000000000000000000000100 >
b00000000000000000000000000001000 ?
b00001 @
b11 A
b00000000000000000000000000000100 D
b00000000000000000000000000000100 E
b00000000000000000000000000000100 G
b01100 H
1J
b00 L
b0000000 O
b00000 R
b00000 S
b00 u
0z
0{
0|
b00000000000000000000000000000000 !!
b00000000000000000000000000000000 "!
b00000000000000000000000000000000 #!
0%!
1&!
b00000000000000000000000000001100 (!
0,!
b0000000000000 -!
1/!
b00000000000000000000000000000000 Q!
b00000000000000000000000000010100 R!
1U!
#8
b00000000000000000000000000000100 `
0/!
b00000000000000000000000000000100 =!
#9
b00000000000100010010010000100011 #
b00000000000000000000000000010100 $
b00000000000000000000000000011000 %
b11111111010000010000000100010011 &
b00000000000000000000000000010000 '
b00000000000000000000000000010100 (
b11111111111111111111111111110100 )
b00000000000000000000000000000000 >
b00000000000000000000000000000000 ?
b00000 @
b00 A
0C
b00000000000000000000000000001100 D
b00000000000000000000000000001000 E
b00000000000000000000000000001000 G
b00001 H
b11 I
b0010011 O
b00010 Q
b10100 R
b00010 S
b11 v
1z
1{
b00000000000000000000000000000000 (!
b1000100000011 -!
1/!
b00000000000000000000000000011000 R!
b00000000000000000000000010000000 S!
#10
b00000000000000000000000000001000 U
0/!
b00000000000000000000000000001000 2!
#11
b00000000100000010010001000100011 #
b00000000000000000000000000011000 $
b00000000000000000000000000011100 %
b00000000000100010010010000100011 &
b00000000000000000000000000010100 '
b00000000000000000000000000011000 (
b00000000000000000000000000001000 )
b00000000000000000000000010000000 *
b00000000000000000000000000010000 ,
b00000000000000000000000000010100 -
b11111111111111111111111111110100 .
b11111111010000010000000100010011 /
b00000000000000000000000000000100 0
b00010 1
b10100 2
b00010 3
b11 7
1:
1;
b00000000000000000000000000000000 D
b00000000000000000000000000000000 E
b00000000000000000000000000000000 G
b00000 H
b00 I
0J
1M
b0100011 O
b010 P
b00001 R
b01000 S
b00 v
1y
0{
b00000000000000000000000010000000 ~
b11111111111111111111111111110100 !!
b00000000000000000000000001110100 "!
0&!
b1000001000000 -!
1/!
b00000000000000000000000000000100 Q!
b00000000000000000000000000011100 R!
b00000000000000000000000000001000 T!
0U!
#12
0/!
#13
b00000000000000000000010100010011 #
b00000000000000000000000000011100 $
b00000000000000000000000000100000 %
b00000000100000010010001000100011 &
b00000000000000000000000000011000 '
b00000000000000000000000000011100 (
b00000000000000000000000000000100 )
b00000000000000000000000000001000 +
b00000000000000000000000000010100 ,
b00000000000000000000000000011000 -
b00000000000000000000000000001000 .
b00000000000100010010010000100011 /
b00000000000000000000000000011100 0
b00001 2
b01000 3
b00 7
19
0;
b00000000000000000000000000010100 ?
b00010 @
1C
b10 K
0M
b010 N
b01000 R
b00100 S
b00000000000000000000000001110100 ~
b00000000000000000000000000001000 !!
b00000000000000000000000001111100 "!
b00000000000000000000000000001000 #!
b00000000000000000000000001110100 (!
1/!
b00000000000000000000000000011100 Q!
b00000000000000000000000000100000 R!
b00000000000000000000000000000000 T!
#14
0/!
#15
b00000010000001100000011001100011 #
b00000000000000000000000000100000 $
b00000000000000000000000000100100 %
b00000000000000000000010100010011 &
b00000000000000000000000000011100 '
b00000000000000000000000000100000 (
b00000000000000000000000000000000 )
b00000000000000000000000000000000 +
b00000000000000000000000000011000 ,
b00000000000000000000000000011100 -
b00000000000000000000000000000100 .
b00000000100000010010001000100011 /
b01000 2
b00100 3
b00000000000000000000000000001000 >
b00000000000000000000000000011000 ?
b01000 @
1B
0C
b00000000000000000000000001110100 D
b00000000000000000000000000010100 E
b00000000000000000000000001110100 G
b00010 H
1J
b01 K
b0010011 O
b000 P
b00000 Q
b00000 R
b01010 S
b11 v
0y
1{
b00000000000000000000000000000100 !!
b00000000000000000000000001111000 "!
b00000000000000000000000000000000 #!
b00000000000000000000000001111100 (!
b1000100000011 -!
1/!
b00000000000000000000000000100100 R!
b00000000000000000000000000000000 S!
#16
b00000000000000000000000001110100 V
0/!
b00000000000000000000000001110100 3!
#17
b00000000000101010000010100010011 #
b00000000000000000000000000100100 $
b00000000000000000000000000101000 %
b00000010000001100000011001100011 &
b00000000000000000000000000100000 '
b00000000000000000000000000100100 (
b00000000000000000000000000101100 )
b00000000000000000000000000000000 *
b00000000000000000000000000011100 ,
b00000000000000000000000000100000 -
b00000000000000000000000000000000 .
b00000000000000000000010100010011 /
b00000 1
b00000 2
b01010 3
b11 7
09
1;
b00000000000000000000000000000000 >
b00000000000000000000000000011100 ?
b00100 @
b00000000000000000000000001111100 D
b00000000000000000000000000011000 E
b00000000000000000000000001111100 G
b01000 H
0J
b00 K
b000 N
b1100011 O
b01100 Q
b01100 S
b01 v
1w
0z
0{
b00000000000000000000000000000000 ~
b00000000000000000000000000000000 !!
b00000000000000000000000000000000 "!
1&!
b00000000000000000000000001111000 (!
b0000000100001 -!
1/!
b00000000000000000000000000101000 R!
b00000000000000000000000000000100 S!
1U!
#18
0/!
#19
b00000010101001100000001001100011 #
b00000000000000000000000000101000 $
b00000000000000000000000000101100 %
b00000000000101010000010100010011 &
b00000000000000000000000000100100 '
b00000000000000000000000000101000 (
b00000000000000000000000000000001 )
b00000000000000000000000000000100 *
b00000000000000000000000000100000 ,
b00000000000000000000000000100100 -
b00000000000000000000000000101100 .
b00000010000001100000011001100011 /
b00000000000000000000000001001100 0
b01100 1
b01100 3
b0110 4
b01 7
18
0:
0;
b00000000000000000000000000100000 ?
b01010 @
0B
1C
b00000000000000000000000001111000 D
b00000000000000000000000000011100 E
b00000000000000000000000001111000 G
b00100 H
b0010011 O
b01010 Q
b00001 R
b01010 S
b11 v
0w
1z
1{
b00000000000000000000000000000100 ~
b00000000000000000000000000000100 "!
0&!
b00000000000000000000000000000000 (!
b1000100000011 -!
1/!
b00000000000000000000000001001100 Q!
b00000000000000000000000000101100 R!
b00000000000000000000000000000000 S!
b00000000000000000000000000001000 T!
0U!
#20
0/!
#21
b11111111111101100000011000010011 #
b00000000000000000000000000101100 $
b00000000000000000000000000110000 %
b00000010101001100000001001100011 &
b00000000000000000000000000101000 '
b00000000000000000000000000101100 (
b00000000000000000000000000100100 )
b00000000000000000000000000000000 *
b00000000000000000000000000001000 +
b00000000000000000000000000100100 ,
b00000000000000000000000000101000 -
b00000000000000000000000000000001 .
b00000000000101010000010100010011 /
b00000000000000000000000000100101 0
b01010 1
b00001 2
b01010 3
b0010 4
b11 7
08
1:
1;
b00000000000000000000000000100100 ?
b01100 @
0C
b00000000000000000000000000000000 D
b00000000000000000000000000100000 E
b00000000000000000000000000000000 G
b01010 H
1J
b01 K
b1100011 O
b01100 Q
b01010 R
b00100 S
b01 v
1w
0z
0{
b00000000000000000000000000000000 ~
b00000000000000000000000000000001 !!
b00000000000000000000000000000001 "!
b00000000000000000000000000001000 #!
b00000000000000000000000000000100 (!
b0000000100001 -!
1/!
b00000000000000000000000000100101 Q!
b00000000000000000000000000110000 R!
b00000000000000000000000000000100 S!
b00000000000000000000000000000000 T!
#22
0/!
