LAB2/waveform.vcd
$version Generated by VerilatedVcd $end
$timescale 1s $end

 $scope module TOP $end
  $var wire  1 ` clk $end
  $var wire 32 b r[0] [31:0] $end
  $var wire 32 l r[10] [31:0] $end
  $var wire 32 m r[11] [31:0] $end
  $var wire 32 n r[12] [31:0] $end
  $var wire 32 o r[13] [31:0] $end
  $var wire 32 p r[14] [31:0] $end
  $var wire 32 q r[15] [31:0] $end
  $var wire 32 r r[16] [31:0] $end
  $var wire 32 s r[17] [31:0] $end
  $var wire 32 t r[18] [31:0] $end
  $var wire 32 u r[19] [31:0] $end
  $var wire 32 c r[1] [31:0] $end
  $var wire 32 v r[20] [31:0] $end
  $var wire 32 w r[21] [31:0] $end
  $var wire 32 x r[22] [31:0] $end
  $var wire 32 y r[23] [31:0] $end
  $var wire 32 z r[24] [31:0] $end
  $var wire 32 { r[25] [31:0] $end
  $var wire 32 | r[26] [31:0] $end
  $var wire 32 } r[27] [31:0] $end
  $var wire 32 ~ r[28] [31:0] $end
  $var wire 32 !! r[29] [31:0] $end
  $var wire 32 d r[2] [31:0] $end
  $var wire 32 "! r[30] [31:0] $end
  $var wire 32 #! r[31] [31:0] $end
  $var wire 32 e r[3] [31:0] $end
  $var wire 32 f r[4] [31:0] $end
  $var wire 32 g r[5] [31:0] $end
  $var wire 32 h r[6] [31:0] $end
  $var wire 32 i r[7] [31:0] $end
  $var wire 32 j r[8] [31:0] $end
  $var wire 32 k r[9] [31:0] $end
  $var wire  1 a start $end
  $scope module SingleCycleCPU $end
   $var wire  2 M ALUOp_w [1:0] $end
   $var wire  1 L ALUPC_w $end
   $var wire  1 G ALUSrc_w $end
   $var wire 32 ^ ALU_result_w [31:0] $end
   $var wire  1 _ ALU_zero_W $end
   $var wire  4 R Aluctl_W [3:0] $end
   $var wire  1 F branch_w $end
   $var wire  1 '! branch_zero $end
   $var wire  1 ` clk $end
   $var wire 32 P imm_W [31:0] $end
   $var wire 32 D inst_w [31:0] $end
   $var wire  1 K jump_w $end
   $var wire  1 H memRead_w $end
   $var wire  1 I memWrite_w $end
   $var wire  1 J memtoReg_w $end
   $var wire 32 Z mux_alusrc_w [31:0] $end
   $var wire  1 (! mux_bran_jump_sel $end
   $var wire 32 %! mux_dm_W [31:0] $end
   $var wire 32 &! mux_dm_jump [31:0] $end
   $var wire 32 $! mux_pc_source_w [31:0] $end
   $var wire 32 [ mux_pc_source_w_JALR [31:0] $end
   $var wire 32 C pc_o_w [31:0] $end
   $var wire 32 b r[0] [31:0] $end
   $var wire 32 l r[10] [31:0] $end
   $var wire 32 m r[11] [31:0] $end
   $var wire 32 n r[12] [31:0] $end
   $var wire 32 o r[13] [31:0] $end
   $var wire 32 p r[14] [31:0] $end
   $var wire 32 q r[15] [31:0] $end
   $var wire 32 r r[16] [31:0] $end
   $var wire 32 s r[17] [31:0] $end
   $var wire 32 t r[18] [31:0] $end
   $var wire 32 u r[19] [31:0] $end
   $var wire 32 c r[1] [31:0] $end
   $var wire 32 v r[20] [31:0] $end
   $var wire 32 w r[21] [31:0] $end
   $var wire 32 x r[22] [31:0] $end
   $var wire 32 y r[23] [31:0] $end
   $var wire 32 z r[24] [31:0] $end
   $var wire 32 { r[25] [31:0] $end
   $var wire 32 | r[26] [31:0] $end
   $var wire 32 } r[27] [31:0] $end
   $var wire 32 ~ r[28] [31:0] $end
   $var wire 32 !! r[29] [31:0] $end
   $var wire 32 d r[2] [31:0] $end
   $var wire 32 "! r[30] [31:0] $end
   $var wire 32 #! r[31] [31:0] $end
   $var wire 32 e r[3] [31:0] $end
   $var wire 32 f r[4] [31:0] $end
   $var wire 32 g r[5] [31:0] $end
   $var wire 32 h r[6] [31:0] $end
   $var wire 32 i r[7] [31:0] $end
   $var wire 32 j r[8] [31:0] $end
   $var wire 32 k r[9] [31:0] $end
   $var wire 32 \ readData1_w [31:0] $end
   $var wire 32 ] readData2_w [31:0] $end
   $var wire 32 )! readdata_w [31:0] $end
   $var wire  1 E regWrite_w $end
   $var wire 32 Q shift_W [31:0] $end
   $var wire  1 a start $end
   $var wire 32 N sum_adder1_w [31:0] $end
   $var wire 32 O sum_adder2_W [31:0] $end
   $scope module m_ALU $end
    $var wire 32 \ A [31:0] $end
    $var wire 32 ^ ALUOut [31:0] $end
    $var wire  4 R ALUctl [3:0] $end
    $var wire 32 Z B [31:0] $end
    $var wire  1 _ zero $end
   $upscope $end
   $scope module m_ALUCtrl $end
    $var wire  4 R ALUCtl [3:0] $end
    $var wire  2 M ALUOp [1:0] $end
    $var wire  3 T funct3 [2:0] $end
    $var wire  1 S funct7 $end
   $upscope $end
   $scope module m_Adder_1 $end
    $var wire 32 C a [31:0] $end
    $var wire 32 *! b [31:0] $end
    $var wire 32 N sum [31:0] $end
   $upscope $end
   $scope module m_Adder_2 $end
    $var wire 32 C a [31:0] $end
    $var wire 32 Q b [31:0] $end
    $var wire 32 O sum [31:0] $end
   $upscope $end
   $scope module m_Control $end
    $var wire  2 M ALUOp [1:0] $end
    $var wire  1 L ALUPC $end
    $var wire  1 G ALUSrc $end
    $var wire  1 F branch $end
    $var wire 10 V ctl [9:0] $end
    $var wire  1 K jump $end
    $var wire  1 H memRead $end
    $var wire  1 I memWrite $end
    $var wire  1 J memtoReg $end
    $var wire  7 U opcode [6:0] $end
    $var wire  1 E regWrite $end
   $upscope $end
   $scope module m_DataMemory $end
    $var wire 32 ^ address [31:0] $end
    $var wire  1 ` clk $end
    $var wire  1 H memRead $end
    $var wire  1 I memWrite $end
    $var wire 32 )! readData [31:0] $end
    $var wire  1 a rst $end
    $var wire 32 ] writeData [31:0] $end
   $upscope $end
   $scope module m_ImmGen $end
    $var wire 32 P imm [31:0] $end
    $var wire 32 D inst [31:0] $end
    $var wire  7 U opcode [6:0] $end
   $upscope $end
   $scope module m_InstMem $end
    $var wire 32 D inst [31:0] $end
    $var wire 32 C readAddr [31:0] $end
   $upscope $end
   $scope module m_Mux_ALU $end
    $var wire 32 Z out [31:0] $end
    $var wire 32 ] s0 [31:0] $end
    $var wire 32 P s1 [31:0] $end
    $var wire  1 G sel $end
    $var wire 32 +! size [31:0] $end
   $upscope $end
   $scope module m_Mux_JUMP $end
    $var wire 32 [ out [31:0] $end
    $var wire 32 $! s0 [31:0] $end
    $var wire 32 ^ s1 [31:0] $end
    $var wire  1 L sel $end
    $var wire 32 +! size [31:0] $end
   $upscope $end
   $scope module m_Mux_PC $end
    $var wire 32 $! out [31:0] $end
    $var wire 32 N s0 [31:0] $end
    $var wire 32 O s1 [31:0] $end
    $var wire  1 (! sel $end
    $var wire 32 +! size [31:0] $end
   $upscope $end
   $scope module m_Mux_WriteData $end
    $var wire 32 %! out [31:0] $end
    $var wire 32 ^ s0 [31:0] $end
    $var wire 32 )! s1 [31:0] $end
    $var wire  1 J sel $end
    $var wire 32 +! size [31:0] $end
   $upscope $end
   $scope module m_Mux_jump $end
    $var wire 32 &! out [31:0] $end
    $var wire 32 %! s0 [31:0] $end
    $var wire 32 N s1 [31:0] $end
    $var wire  1 K sel $end
    $var wire 32 +! size [31:0] $end
   $upscope $end
   $scope module m_PC $end
    $var wire  1 ` clk $end
    $var wire 32 [ pc_i [31:0] $end
    $var wire 32 C pc_o [31:0] $end
    $var wire  1 a rst $end
   $upscope $end
   $scope module m_Register $end
    $var wire  1 ` clk $end
    $var wire 32 \ readData1 [31:0] $end
    $var wire 32 ] readData2 [31:0] $end
    $var wire  5 W readReg1 [4:0] $end
    $var wire  5 X readReg2 [4:0] $end
    $var wire  1 E regWrite $end
    $var wire 32 # regs[0] [31:0] $end
    $var wire 32 - regs[10] [31:0] $end
    $var wire 32 . regs[11] [31:0] $end
    $var wire 32 / regs[12] [31:0] $end
    $var wire 32 0 regs[13] [31:0] $end
    $var wire 32 1 regs[14] [31:0] $end
    $var wire 32 2 regs[15] [31:0] $end
    $var wire 32 3 regs[16] [31:0] $end
    $var wire 32 4 regs[17] [31:0] $end
    $var wire 32 5 regs[18] [31:0] $end
    $var wire 32 6 regs[19] [31:0] $end
    $var wire 32 $ regs[1] [31:0] $end
    $var wire 32 7 regs[20] [31:0] $end
    $var wire 32 8 regs[21] [31:0] $end
    $var wire 32 9 regs[22] [31:0] $end
    $var wire 32 : regs[23] [31:0] $end
    $var wire 32 ; regs[24] [31:0] $end
    $var wire 32 < regs[25] [31:0] $end
    $var wire 32 = regs[26] [31:0] $end
    $var wire 32 > regs[27] [31:0] $end
    $var wire 32 ? regs[28] [31:0] $end
    $var wire 32 @ regs[29] [31:0] $end
    $var wire 32 % regs[2] [31:0] $end
    $var wire 32 A regs[30] [31:0] $end
    $var wire 32 B regs[31] [31:0] $end
    $var wire 32 & regs[3] [31:0] $end
    $var wire 32 ' regs[4] [31:0] $end
    $var wire 32 ( regs[5] [31:0] $end
    $var wire 32 ) regs[6] [31:0] $end
    $var wire 32 * regs[7] [31:0] $end
    $var wire 32 + regs[8] [31:0] $end
    $var wire 32 , regs[9] [31:0] $end
    $var wire  1 a rst $end
    $var wire 32 &! writeData [31:0] $end
    $var wire  5 Y writeReg [4:0] $end
   $upscope $end
   $scope module m_ShiftLeftOne $end
    $var wire 32 P i [31:0] $end
    $var wire 32 Q o [31:0] $end
   $upscope $end
  $upscope $end
 $upscope $end
$enddefinitions $end


#0
b00000000000000000000000000000000 #
b00000000000000000000000000000000 $
b00000000000000000000000000000000 %
b00000000000000000000000000000000 &
b00000000000000000000000000000000 '
b00000000000000000000000000000000 (
b00000000000000000000000000000000 )
b00000000000000000000000000000000 *
b00000000000000000000000000000000 +
b00000000000000000000000000000000 ,
b00000000000000000000000000000000 -
b00000000000000000000000000000000 .
b00000000000000000000000000000000 /
b00000000000000000000000000000000 0
b00000000000000000000000000000000 1
b00000000000000000000000000000000 2
b00000000000000000000000000000000 3
b00000000000000000000000000000000 4
b00000000000000000000000000000000 5
b00000000000000000000000000000000 6
b00000000000000000000000000000000 7
b00000000000000000000000000000000 8
b00000000000000000000000000000000 9
b00000000000000000000000000000000 :
b00000000000000000000000000000000 ;
b00000000000000000000000000000000 <
b00000000000000000000000000000000 =
b00000000000000000000000000000000 >
b00000000000000000000000000000000 ?
b00000000000000000000000000000000 @
b00000000000000000000000000000000 A
b00000000000000000000000000000000 B
b00000000000000000000000000000000 C
b00000000010000000000011000010011 D
1E
0F
1G
0H
0I
0J
0K
0L
b11 M
b00000000000000000000000000000100 N
b00000000000000000000000000001000 O
b00000000000000000000000000000100 P
b00000000000000000000000000001000 Q
b0010 R
0S
b000 T
b0010011 U
b1010001100 V
b00000 W
b00100 X
b01100 Y
b00000000000000000000000000000100 Z
b00000000000000000000000000000100 [
b00000000000000000000000000000000 \
b00000000000000000000000000000000 ]
b00000000000000000000000000000100 ^
0_
0`
1a
b00000000000000000000000000000000 b
b00000000000000000000000000000000 c
b00000000000000000000000000000000 d
b00000000000000000000000000000000 e
b00000000000000000000000000000000 f
b00000000000000000000000000000000 g
b00000000000000000000000000000000 h
b00000000000000000000000000000000 i
b00000000000000000000000000000000 j
b00000000000000000000000000000000 k
b00000000000000000000000000000000 l
b00000000000000000000000000000000 m
b00000000000000000000000000000000 n
b00000000000000000000000000000000 o
b00000000000000000000000000000000 p
b00000000000000000000000000000000 q
b00000000000000000000000000000000 r
b00000000000000000000000000000000 s
b00000000000000000000000000000000 t
b00000000000000000000000000000000 u
b00000000000000000000000000000000 v
b00000000000000000000000000000000 w
b00000000000000000000000000000000 x
b00000000000000000000000000000000 y
b00000000000000000000000000000000 z
b00000000000000000000000000000000 {
b00000000000000000000000000000000 |
b00000000000000000000000000000000 }
b00000000000000000000000000000000 ~
b00000000000000000000000000000000 !!
b00000000000000000000000000000000 "!
b00000000000000000000000000000000 #!
b00000000000000000000000000000100 $!
b00000000000000000000000000000100 %!
b00000000000000000000000000000100 &!
0'!
0(!
b00000000000000000000000000000000 )!
b00000000000000000000000000000100 *!
b00000000000000000000000000100000 +!
#1
b00000000000000000000000010000000 %
1`
0a
b00000000000000000000000010000000 d
#2
b00000000000000000000000000000100 /
0`
1a
b00000000000000000000000000000100 n
#3
b00000000000000000000000000000100 C
b00000000110000000000000011101111 D
1J
1K
b00 M
b00000000000000000000000000001000 N
b00000000000000000000000000010000 O
b00000000000000000000000000000110 P
b00000000000000000000000000001100 Q
b1101111 U
b1110000010 V
b01100 X
b00001 Y
b00000000000000000000000000000110 Z
b00000000000000000000000000010000 [
b00000000000000000000000000000100 ]
b00000000000000000000000000000110 ^
1`
b00000000000000000000000000010000 $!
b00000000000000000000000000000000 %!
b00000000000000000000000000001000 &!
1(!
#4
b00000000000000000000000000001000 $
0`
b00000000000000000000000000001000 c
#5
b00000000000000000000000000010000 C
b11111111010000010000000100010011 D
0J
0K
b11 M
b00000000000000000000000000010100 N
b11111111111111111111111111111000 O
b11111111111111111111111111110100 P
b11111111111111111111111111101000 Q
1S
b0010011 U
b1010001100 V
b00010 W
b10100 X
b00010 Y
b11111111111111111111111111110100 Z
b00000000000000000000000000010100 [
b00000000000000000000000010000000 \
b00000000000000000000000000000000 ]
b00000000000000000000000001110100 ^
1`
b00000000000000000000000000010100 $!
b00000000000000000000000001110100 %!
b00000000000000000000000001110100 &!
0(!
#6
b00000000000000000000000001110100 %
b00000000000000000000000001110100 \
b00000000000000000000000001101000 ^
0`
b00000000000000000000000001110100 d
b00000000000000000000000001101000 %!
b00000000000000000000000001101000 &!
#7
b00000000000000000000000000010100 C
b00000000000100010010010000100011 D
0E
1I
b00 M
b00000000000000000000000000011000 N
b00000000000000000000000000100100 O
b00000000000000000000000000001000 P
b00000000000000000000000000010000 Q
0S
b010 T
b0100011 U
b1000100000 V
b00001 X
b01000 Y
b00000000000000000000000000001000 Z
b00000000000000000000000000011000 [
b00000000000000000000000000001000 ]
b00000000000000000000000001111100 ^
1`
b00000000000000000000000000011000 $!
b00000000000000000000000001111100 %!
b00000000000000000000000001111100 &!
#8
0`
#9
b00000000000000000000000000011000 C
b00000000100000010010001000100011 D
b00000000000000000000000000011100 N
b00000000000000000000000000100000 O
b00000000000000000000000000000100 P
b00000000000000000000000000001000 Q
b01000 X
b00100 Y
b00000000000000000000000000000100 Z
b00000000000000000000000000011100 [
b00000000000000000000000000000000 ]
b00000000000000000000000001111000 ^
1`
b00000000000000000000000000011100 $!
b00000000000000000000000001111000 %!
b00000000000000000000000001111000 &!
#10
0`
#11
b00000000000000000000000000011100 C
b00000000000000000000010100010011 D
1E
0I
b11 M
b00000000000000000000000000100000 N
b00000000000000000000000000011100 O
b00000000000000000000000000000000 P
b00000000000000000000000000000000 Q
b000 T
b0010011 U
b1010001100 V
b00000 W
b00000 X
b01010 Y
b00000000000000000000000000000000 Z
b00000000000000000000000000100000 [
b00000000000000000000000000000000 \
b00000000000000000000000000000000 ^
1_
1`
b00000000000000000000000000100000 $!
b00000000000000000000000000000000 %!
b00000000000000000000000000000000 &!
#12
0`
#13
b00000000000000000000000000100000 C
b00000010000001100000011001100011 D
0E
1F
0G
b01 M
b00000000000000000000000000100100 N
b00000000000000000000000001001100 O
b00000000000000000000000000010110 P
b00000000000000000000000000101100 Q
b0110 R
b1100011 U
b0000010100 V
b01100 W
b01100 Y
b00000000000000000000000000100100 [
b00000000000000000000000000000100 \
b00000000000000000000000000000100 ^
0_
1`
b00000000000000000000000000100100 $!
b00000000000000000000000000000100 %!
b00000000000000000000000000000100 &!
#14
0`
#15
b00000000000000000000000000100100 C
b00000000000101010000010100010011 D
1E
0F
1G
b11 M
b00000000000000000000000000101000 N
b00000000000000000000000000100110 O
b00000000000000000000000000000001 P
b00000000000000000000000000000010 Q
b0010 R
b0010011 U
b1010001100 V
b01010 W
b00001 X
b01010 Y
b00000000000000000000000000000001 Z
b00000000000000000000000000101000 [
b00000000000000000000000000000000 \
b00000000000000000000000000001000 ]
b00000000000000000000000000000001 ^
1`
b00000000000000000000000000101000 $!
b00000000000000000000000000000001 %!
b00000000000000000000000000000001 &!
#16
b00000000000000000000000000000001 -
b00000000000000000000000000000001 \
b00000000000000000000000000000010 ^
0`
b00000000000000000000000000000001 l
b00000000000000000000000000000010 %!
b00000000000000000000000000000010 &!
#17
b00000000000000000000000000101000 C
b00000010101001100000001001100011 D
0E
1F
0G
b01 M
b00000000000000000000000000101100 N
b00000000000000000000000001001100 O
b00000000000000000000000000010010 P
b00000000000000000000000000100100 Q
b0110 R
b1100011 U
b0000010100 V
b01100 W
b01010 X
b00100 Y
b00000000000000000000000000101100 [
b00000000000000000000000000000100 \
b00000000000000000000000000000001 ]
b00000000000000000000000000000011 ^
1`
b00000000000000000000000000101100 $!
b00000000000000000000000000000011 %!
b00000000000000000000000000000011 &!
#18
0`
#19
b00000000000000000000000000101100 C
b11111111111101100000011000010011 D
1E
0F
1G
b11 M
b00000000000000000000000000110000 N
b00000000000000000000000000101010 O
b11111111111111111111111111111111 P
b11111111111111111111111111111110 Q
b0010 R
1S
b0010011 U
b1010001100 V
b11111 X
b01100 Y
b11111111111111111111111111111111 Z
b00000000000000000000000000110000 [
b00000000000000000000000000000000 ]
1`
b00000000000000000000000000110000 $!
#20
b00000000000000000000000000000011 /
b00000000000000000000000000000011 \
b00000000000000000000000000000010 ^
0`
b00000000000000000000000000000011 n
b00000000000000000000000000000010 %!
b00000000000000000000000000000010 &!
#21
b00000000000000000000000000110000 C
b00000000110000010010000000100011 D
0E
1I
b00 M
b00000000000000000000000000110100 N
b00000000000000000000000000110000 O
b00000000000000000000000000000000 P
b00000000000000000000000000000000 Q
0S
b010 T
b0100011 U
b1000100000 V
b00010 W
b01100 X
b00000 Y
b00000000000000000000000000000000 Z
b00000000000000000000000000110100 [
b00000000000000000000000001110100 \
b00000000000000000000000000000011 ]
b00000000000000000000000001110100 ^
1`
b00000000000000000000000000110100 $!
b00000000000000000000000001110100 %!
b00000000000000000000000001110100 &!
#22
0`
#23
b00000000000000000000000000110100 C
b11111101110111111111000011101111 D
1E
0I
1J
1K
b00000000000000000000000000111000 N
b00000000000000000000000000010000 O
b11111111111111111111111111101110 P
b11111111111111111111111111011100 Q
1S
b111 T
b1101111 U
b1110000010 V
b11111 W
b11101 X
b00001 Y
b11111111111111111111111111101110 Z
b00000000000000000000000000010000 [
b00000000000000000000000000000000 \
b00000000000000000000000000000000 ]
b11111111111111111111111111101110 ^
1`
b00000000000000000000000000010000 $!
b00000000000000000000000000000000 %!
b00000000000000000000000000111000 &!
1(!
#24
b00000000000000000000000000111000 $
0`
b00000000000000000000000000111000 c
#25
b00000000000000000000000000010000 C
b11111111010000010000000100010011 D
0J
0K
b11 M
b00000000000000000000000000010100 N
b11111111111111111111111111111000 O
b11111111111111111111111111110100 P
b11111111111111111111111111101000 Q
b000 T
b0010011 U
b1010001100 V
b00010 W
b10100 X
b00010 Y
b11111111111111111111111111110100 Z
b00000000000000000000000000010100 [
b00000000000000000000000001110100 \
b00000000000000000000000001101000 ^
1`
b00000000000000000000000000010100 $!
b00000000000000000000000001101000 %!
b00000000000000000000000001101000 &!
0(!
#26
b00000000000000000000000001101000 %
b00000000000000000000000001101000 \
b00000000000000000000000001011100 ^
0`
b00000000000000000000000001101000 d
b00000000000000000000000001011100 %!
b00000000000000000000000001011100 &!
#27
b00000000000000000000000000010100 C
b00000000000100010010010000100011 D
0E
1I
b00 M
b00000000000000000000000000011000 N
b00000000000000000000000000100100 O
b00000000000000000000000000001000 P
b00000000000000000000000000010000 Q
0S
b010 T
b0100011 U
b1000100000 V
b00001 X
b01000 Y
b00000000000000000000000000001000 Z
b00000000000000000000000000011000 [
b00000000000000000000000000111000 ]
b00000000000000000000000001110000 ^
1`
b00000000000000000000000000011000 $!
b00000000000000000000000001110000 %!
b00000000000000000000000001110000 &!
#28
0`
#29
b00000000000000000000000000011000 C
b00000000100000010010001000100011 D
b00000000000000000000000000011100 N
b00000000000000000000000000100000 O
b00000000000000000000000000000100 P
b00000000000000000000000000001000 Q
b01000 X
b00100 Y
b00000000000000000000000000000100 Z
b00000000000000000000000000011100 [
b00000000000000000000000000000000 ]
b00000000000000000000000001101100 ^
1`
b00000000000000000000000000011100 $!
b00000000000000000000000001101100 %!
b00000000000000000000000001101100 &!
#30
0`
#31
b00000000000000000000000000011100 C
b00000000000000000000010100010011 D
1E
0I
b11 M
b00000000000000000000000000100000 N
b00000000000000000000000000011100 O
b00000000000000000000000000000000 P
b00000000000000000000000000000000 Q
b000 T
b0010011 U
b1010001100 V
b00000 W
b00000 X
b01010 Y
b00000000000000000000000000000000 Z
b00000000000000000000000000100000 [
b00000000000000000000000000000000 \
b00000000000000000000000000000000 ^
1_
1`
b00000000000000000000000000100000 $!
b00000000000000000000000000000000 %!
b00000000000000000000000000000000 &!
#32
b00000000000000000000000000000000 -
0`
b00000000000000000000000000000000 l
#33
b00000000000000000000000000100000 C
b00000010000001100000011001100011 D
0E
1F
0G
b01 M
b00000000000000000000000000100100 N
b00000000000000000000000001001100 O
b00000000000000000000000000010110 P
b00000000000000000000000000101100 Q
b0110 R
b1100011 U
b0000010100 V
b01100 W
b01100 Y
b00000000000000000000000000100100 [
b00000000000000000000000000000011 \
b00000000000000000000000000000011 ^
0_
1`
b00000000000000000000000000100100 $!
b00000000000000000000000000000011 %!
b00000000000000000000000000000011 &!
#34
0`
#35
b00000000000000000000000000100100 C
b00000000000101010000010100010011 D
1E
0F
1G
b11 M
b00000000000000000000000000101000 N
b00000000000000000000000000100110 O
b00000000000000000000000000000001 P
b00000000000000000000000000000010 Q
b0010 R
b0010011 U
b1010001100 V
b01010 W
b00001 X
b01010 Y
b00000000000000000000000000000001 Z
b00000000000000000000000000101000 [
b00000000000000000000000000000000 \
b00000000000000000000000000111000 ]
b00000000000000000000000000000001 ^
1`
b00000000000000000000000000101000 $!
b00000000000000000000000000000001 %!
b00000000000000000000000000000001 &!
#36
b00000000000000000000000000000001 -
b00000000000000000000000000000001 \
b00000000000000000000000000000010 ^
0`
b00000000000000000000000000000001 l
b00000000000000000000000000000010 %!
b00000000000000000000000000000010 &!
#37
b00000000000000000000000000101000 C
b00000010101001100000001001100011 D
0E
1F
0G
b01 M
b00000000000000000000000000101100 N
b00000000000000000000000001001100 O
b00000000000000000000000000010010 P
b00000000000000000000000000100100 Q
b0110 R
b1100011 U
b0000010100 V
b01100 W
b01010 X
b00100 Y
b00000000000000000000000000101100 [
b00000000000000000000000000000011 \
b00000000000000000000000000000001 ]
1`
b00000000000000000000000000101100 $!
#38
0`
#39
b00000000000000000000000000101100 C
b11111111111101100000011000010011 D
1E
0F
1G
b11 M
b00000000000000000000000000110000 N
b00000000000000000000000000101010 O
b11111111111111111111111111111111 P
b11111111111111111111111111111110 Q
b0010 R
1S
b0010011 U
b1010001100 V
b11111 X
b01100 Y
b11111111111111111111111111111111 Z
b00000000000000000000000000110000 [
b00000000000000000000000000000000 ]
1`
b00000000000000000000000000110000 $!
#40
b00000000000000000000000000000010 /
b00000000000000000000000000000010 \
b00000000000000000000000000000001 ^
0`
b00000000000000000000000000000010 n
b00000000000000000000000000000001 %!
b00000000000000000000000000000001 &!
#41
b00000000000000000000000000110000 C
b00000000110000010010000000100011 D
0E
1I
b00 M
b00000000000000000000000000110100 N
b00000000000000000000000000110000 O
b00000000000000000000000000000000 P
b00000000000000000000000000000000 Q
0S
b010 T
b0100011 U
b1000100000 V
b00010 W
b01100 X
b00000 Y
b00000000000000000000000000000000 Z
b00000000000000000000000000110100 [
b00000000000000000000000001101000 \
b00000000000000000000000000000010 ]
b00000000000000000000000001101000 ^
1`
b00000000000000000000000000110100 $!
b00000000000000000000000001101000 %!
b00000000000000000000000001101000 &!
#42
0`
#43
b00000000000000000000000000110100 C
b11111101110111111111000011101111 D
1E
0I
1J
1K
b00000000000000000000000000111000 N
b00000000000000000000000000010000 O
b11111111111111111111111111101110 P
b11111111111111111111111111011100 Q
1S
b111 T
b1101111 U
b1110000010 V
b11111 W
b11101 X
b00001 Y
b11111111111111111111111111101110 Z
b00000000000000000000000000010000 [
b00000000000000000000000000000000 \
b00000000000000000000000000000000 ]
b11111111111111111111111111101110 ^
1`
b00000000000000000000000000010000 $!
b00000000000000000000000000000000 %!
b00000000000000000000000000111000 &!
1(!
#44
0`
#45
b00000000000000000000000000010000 C
b11111111010000010000000100010011 D
0J
0K
b11 M
b00000000000000000000000000010100 N
b11111111111111111111111111111000 O
b11111111111111111111111111110100 P
b11111111111111111111111111101000 Q
b000 T
b0010011 U
b1010001100 V
b00010 W
b10100 X
b00010 Y
b11111111111111111111111111110100 Z
b00000000000000000000000000010100 [
b00000000000000000000000001101000 \
b00000000000000000000000001011100 ^
1`
b00000000000000000000000000010100 $!
b00000000000000000000000001011100 %!
b00000000000000000000000001011100 &!
0(!
#46
b00000000000000000000000001011100 %
b00000000000000000000000001011100 \
b00000000000000000000000001010000 ^
0`
b00000000000000000000000001011100 d
b00000000000000000000000001010000 %!
b00000000000000000000000001010000 &!
#47
b00000000000000000000000000010100 C
b00000000000100010010010000100011 D
0E
1I
b00 M
b00000000000000000000000000011000 N
b00000000000000000000000000100100 O
b00000000000000000000000000001000 P
b00000000000000000000000000010000 Q
0S
b010 T
b0100011 U
b1000100000 V
b00001 X
b01000 Y
b00000000000000000000000000001000 Z
b00000000000000000000000000011000 [
b00000000000000000000000000111000 ]
b00000000000000000000000001100100 ^
1`
b00000000000000000000000000011000 $!
b00000000000000000000000001100100 %!
b00000000000000000000000001100100 &!
#48
0`
#49
b00000000000000000000000000011000 C
b00000000100000010010001000100011 D
b00000000000000000000000000011100 N
b00000000000000000000000000100000 O
b00000000000000000000000000000100 P
b00000000000000000000000000001000 Q
b01000 X
b00100 Y
b00000000000000000000000000000100 Z
b00000000000000000000000000011100 [
b00000000000000000000000000000000 ]
b00000000000000000000000001100000 ^
1`
b00000000000000000000000000011100 $!
b00000000000000000000000001100000 %!
b00000000000000000000000001100000 &!
#50
0`
#51
b00000000000000000000000000011100 C
b00000000000000000000010100010011 D
1E
0I
b11 M
b00000000000000000000000000100000 N
b00000000000000000000000000011100 O
b00000000000000000000000000000000 P
b00000000000000000000000000000000 Q
b000 T
b0010011 U
b1010001100 V
b00000 W
b00000 X
b01010 Y
b00000000000000000000000000000000 Z
b00000000000000000000000000100000 [
b00000000000000000000000000000000 \
b00000000000000000000000000000000 ^
1_
1`
b00000000000000000000000000100000 $!
b00000000000000000000000000000000 %!
b00000000000000000000000000000000 &!
#52
b00000000000000000000000000000000 -
0`
b00000000000000000000000000000000 l
#53
b00000000000000000000000000100000 C
b00000010000001100000011001100011 D
0E
1F
0G
b01 M
b00000000000000000000000000100100 N
b00000000000000000000000001001100 O
b00000000000000000000000000010110 P
b00000000000000000000000000101100 Q
b0110 R
b1100011 U
b0000010100 V
b01100 W
b01100 Y
b00000000000000000000000000100100 [
b00000000000000000000000000000010 \
b00000000000000000000000000000010 ^
0_
1`
b00000000000000000000000000100100 $!
b00000000000000000000000000000010 %!
b00000000000000000000000000000010 &!
#54
0`
#55
b00000000000000000000000000100100 C
b00000000000101010000010100010011 D
1E
0F
1G
b11 M
b00000000000000000000000000101000 N
b00000000000000000000000000100110 O
b00000000000000000000000000000001 P
b00000000000000000000000000000010 Q
b0010 R
b0010011 U
b1010001100 V
b01010 W
b00001 X
b01010 Y
b00000000000000000000000000000001 Z
b00000000000000000000000000101000 [
b00000000000000000000000000000000 \
b00000000000000000000000000111000 ]
b00000000000000000000000000000001 ^
1`
b00000000000000000000000000101000 $!
b00000000000000000000000000000001 %!
b00000000000000000000000000000001 &!
#56
b00000000000000000000000000000001 -
b00000000000000000000000000000001 \
b00000000000000000000000000000010 ^
0`
b00000000000000000000000000000001 l
b00000000000000000000000000000010 %!
b00000000000000000000000000000010 &!
#57
b00000000000000000000000000101000 C
b00000010101001100000001001100011 D
0E
1F
0G
b01 M
b00000000000000000000000000101100 N
b00000000000000000000000001001100 O
b00000000000000000000000000010010 P
b00000000000000000000000000100100 Q
b0110 R
b1100011 U
b0000010100 V
b01100 W
b01010 X
b00100 Y
b00000000000000000000000000101100 [
b00000000000000000000000000000010 \
b00000000000000000000000000000001 ]
b00000000000000000000000000000001 ^
1`
b00000000000000000000000000101100 $!
b00000000000000000000000000000001 %!
b00000000000000000000000000000001 &!
#58
0`
#59
b00000000000000000000000000101100 C
b11111111111101100000011000010011 D
1E
0F
1G
b11 M
b00000000000000000000000000110000 N
b00000000000000000000000000101010 O
b11111111111111111111111111111111 P
b11111111111111111111111111111110 Q
b0010 R
1S
b0010011 U
b1010001100 V
b11111 X
b01100 Y
b11111111111111111111111111111111 Z
b00000000000000000000000000110000 [
b00000000000000000000000000000000 ]
1`
b00000000000000000000000000110000 $!
#60
b00000000000000000000000000000001 /
b00000000000000000000000000000001 \
b00000000000000000000000000000000 ^
1_
0`
b00000000000000000000000000000001 n
b00000000000000000000000000000000 %!
b00000000000000000000000000000000 &!
#61
b00000000000000000000000000110000 C
b00000000110000010010000000100011 D
0E
1I
b00 M
b00000000000000000000000000110100 N
b00000000000000000000000000110000 O
b00000000000000000000000000000000 P
b00000000000000000000000000000000 Q
0S
b010 T
b0100011 U
b1000100000 V
b00010 W
b01100 X
b00000 Y
b00000000000000000000000000000000 Z
b00000000000000000000000000110100 [
b00000000000000000000000001011100 \
b00000000000000000000000000000001 ]
b00000000000000000000000001011100 ^
0_
1`
b00000000000000000000000000110100 $!
b00000000000000000000000001011100 %!
b00000000000000000000000001011100 &!
#62
0`
