LAB3/waveform.vcd
$version Generated by VerilatedVcd $end
$timescale 1s $end

 $scope module TOP $end
  $var wire  1 ?! clk $end
  $var wire 32 A! r[0] [31:0] $end
  $var wire 32 K! r[10] [31:0] $end
  $var wire 32 L! r[11] [31:0] $end
  $var wire 32 M! r[12] [31:0] $end
  $var wire 32 N! r[13] [31:0] $end
  $var wire 32 O! r[14] [31:0] $end
  $var wire 32 P! r[15] [31:0] $end
  $var wire 32 Q! r[16] [31:0] $end
  $var wire 32 R! r[17] [31:0] $end
  $var wire 32 S! r[18] [31:0] $end
  $var wire 32 T! r[19] [31:0] $end
  $var wire 32 B! r[1] [31:0] $end
  $var wire 32 U! r[20] [31:0] $end
  $var wire 32 V! r[21] [31:0] $end
  $var wire 32 W! r[22] [31:0] $end
  $var wire 32 X! r[23] [31:0] $end
  $var wire 32 Y! r[24] [31:0] $end
  $var wire 32 Z! r[25] [31:0] $end
  $var wire 32 [! r[26] [31:0] $end
  $var wire 32 \! r[27] [31:0] $end
  $var wire 32 ]! r[28] [31:0] $end
  $var wire 32 ^! r[29] [31:0] $end
  $var wire 32 C! r[2] [31:0] $end
  $var wire 32 _! r[30] [31:0] $end
  $var wire 32 `! r[31] [31:0] $end
  $var wire 32 D! r[3] [31:0] $end
  $var wire 32 E! r[4] [31:0] $end
  $var wire 32 F! r[5] [31:0] $end
  $var wire 32 G! r[6] [31:0] $end
  $var wire 32 H! r[7] [31:0] $end
  $var wire 32 I! r[8] [31:0] $end
  $var wire 32 J! r[9] [31:0] $end
  $var wire  1 @! start $end
  $scope module SingleCycleCPU $end
   $var wire  2 - ALUOp_w [1:0] $end
   $var wire  1 , ALUPC_w $end
   $var wire  1 ' ALUSrc_w $end
   $var wire 32 7 ALU_result_w [31:0] $end
   $var wire  1 8 ALU_zero_W $end
   $var wire  4 ; Aluctl_W [3:0] $end
   $var wire 32 S EX_MEM_ALU_result_w [31:0] $end
   $var wire  1 Q EX_MEM_ALU_zero_W $end
   $var wire  1 L EX_MEM_branch_w $end
   $var wire  5 U EX_MEM_inst_w_11_7 [4:0] $end
   $var wire  1 M EX_MEM_memRead_w $end
   $var wire  1 O EX_MEM_memWrite_w $end
   $var wire  1 N EX_MEM_memtoReg_w $end
   $var wire 32 T EX_MEM_readData2_w [31:0] $end
   $var wire  1 P EX_MEM_regWrite_w $end
   $var wire 32 R EX_MEM_sum_adder2_W [31:0] $end
   $var wire  2 D IDEX_ALUOp_w [1:0] $end
   $var wire  1 B IDEX_ALUSrc_w $end
   $var wire  1 > IDEX_branch_w $end
   $var wire 32 H IDEX_imm_W [31:0] $end
   $var wire  5 K IDEX_inst_w_11_7 [4:0] $end
   $var wire  3 J IDEX_inst_w_14_12 [2:0] $end
   $var wire  1 I IDEX_inst_w_30 $end
   $var wire  1 ? IDEX_memRead_w $end
   $var wire  1 A IDEX_memWrite_w $end
   $var wire  1 @ IDEX_memtoReg_w $end
   $var wire 32 E IDEX_pcout [31:0] $end
   $var wire 32 F IDEX_readData1_w [31:0] $end
   $var wire 32 G IDEX_readData2_w [31:0] $end
   $var wire  1 C IDEX_regWrite_w $end
   $var wire 32 = IFID_inst_w [31:0] $end
   $var wire 32 < IFID_pcout [31:0] $end
   $var wire 32 X MEM_WB_ALU_result_w [31:0] $end
   $var wire  5 Z MEM_WB_inst_w_11_7 [4:0] $end
   $var wire  1 V MEM_WB_memtoReg_w $end
   $var wire 32 Y MEM_WB_readdata_w [31:0] $end
   $var wire  1 W MEM_WB_regWrite_w $end
   $var wire  1 & branch_w $end
   $var wire  1 9 branch_zero $end
   $var wire  1 ?! clk $end
   $var wire 32 5 imm_W [31:0] $end
   $var wire 32 $ inst_w [31:0] $end
   $var wire  1 + jump_w $end
   $var wire  1 ( memRead_w $end
   $var wire  1 ) memWrite_w $end
   $var wire  1 * memtoReg_w $end
   $var wire 32 . mux_alusrc_w [31:0] $end
   $var wire  1 : mux_bran_jump_sel $end
   $var wire 32 1 mux_dm_W [31:0] $end
   $var wire 32 2 mux_dm_jump [31:0] $end
   $var wire 32 / mux_pc_source_w [31:0] $end
   $var wire 32 0 mux_pc_source_w_JALR [31:0] $end
   $var wire 32 # pc_o_w [31:0] $end
   $var wire 32 A! r[0] [31:0] $end
   $var wire 32 K! r[10] [31:0] $end
   $var wire 32 L! r[11] [31:0] $end
   $var wire 32 M! r[12] [31:0] $end
   $var wire 32 N! r[13] [31:0] $end
   $var wire 32 O! r[14] [31:0] $end
   $var wire 32 P! r[15] [31:0] $end
   $var wire 32 Q! r[16] [31:0] $end
   $var wire 32 R! r[17] [31:0] $end
   $var wire 32 S! r[18] [31:0] $end
   $var wire 32 T! r[19] [31:0] $end
   $var wire 32 B! r[1] [31:0] $end
   $var wire 32 U! r[20] [31:0] $end
   $var wire 32 V! r[21] [31:0] $end
   $var wire 32 W! r[22] [31:0] $end
   $var wire 32 X! r[23] [31:0] $end
   $var wire 32 Y! r[24] [31:0] $end
   $var wire 32 Z! r[25] [31:0] $end
   $var wire 32 [! r[26] [31:0] $end
   $var wire 32 \! r[27] [31:0] $end
   $var wire 32 ]! r[28] [31:0] $end
   $var wire 32 ^! r[29] [31:0] $end
   $var wire 32 C! r[2] [31:0] $end
   $var wire 32 _! r[30] [31:0] $end
   $var wire 32 `! r[31] [31:0] $end
   $var wire 32 D! r[3] [31:0] $end
   $var wire 32 E! r[4] [31:0] $end
   $var wire 32 F! r[5] [31:0] $end
   $var wire 32 G! r[6] [31:0] $end
   $var wire 32 H! r[7] [31:0] $end
   $var wire 32 I! r[8] [31:0] $end
   $var wire 32 J! r[9] [31:0] $end
   $var wire 32 s readData1_w [31:0] $end
   $var wire 32 t readData2_w [31:0] $end
   $var wire 32 a! readdata_w [31:0] $end
   $var wire  1 % regWrite_w $end
   $var wire 32 6 shift_W [31:0] $end
   $var wire  1 @! start $end
   $var wire 32 3 sum_adder1_w [31:0] $end
   $var wire 32 4 sum_adder2_W [31:0] $end
   $scope module EX_MEM $end
    $var wire  1 ?! clk $end
    $var wire 107 [ pipe_data_i [106:0] $end
    $var wire 107 _ pipe_data_o [106:0] $end
    $var wire  1 @! rst $end
    $var wire 32 b! size [31:0] $end
   $upscope $end
   $scope module ID_EX $end
    $var wire  1 ?! clk $end
    $var wire 145 u pipe_data_i [144:0] $end
    $var wire 145 c pipe_data_o [144:0] $end
    $var wire  1 @! rst $end
    $var wire 32 c! size [31:0] $end
   $upscope $end
   $scope module IF_ID $end
    $var wire  1 ?! clk $end
    $var wire 64 h pipe_data_i [63:0] $end
    $var wire 64 j pipe_data_o [63:0] $end
    $var wire  1 @! rst $end
    $var wire 32 d! size [31:0] $end
   $upscope $end
   $scope module MEM_WB $end
    $var wire  1 ?! clk $end
    $var wire 71 z pipe_data_i [70:0] $end
    $var wire 71 l pipe_data_o [70:0] $end
    $var wire  1 @! rst $end
    $var wire 32 e! size [31:0] $end
   $upscope $end
   $scope module m_ALU $end
    $var wire 32 F A [31:0] $end
    $var wire 32 7 ALUOut [31:0] $end
    $var wire  4 ; ALUctl [3:0] $end
    $var wire 32 . B [31:0] $end
    $var wire  1 8 zero $end
   $upscope $end
   $scope module m_ALUCtrl $end
    $var wire  4 ; ALUCtl [3:0] $end
    $var wire  2 D ALUOp [1:0] $end
    $var wire  3 J funct3 [2:0] $end
    $var wire  1 I funct7 $end
   $upscope $end
   $scope module m_Adder_1 $end
    $var wire 32 # a [31:0] $end
    $var wire 32 f! b [31:0] $end
    $var wire 32 3 sum [31:0] $end
   $upscope $end
   $scope module m_Adder_2 $end
    $var wire 32 E a [31:0] $end
    $var wire 32 6 b [31:0] $end
    $var wire 32 4 sum [31:0] $end
   $upscope $end
   $scope module m_Control $end
    $var wire  2 - ALUOp [1:0] $end
    $var wire  1 , ALUPC $end
    $var wire  1 ' ALUSrc $end
    $var wire  1 & branch $end
    $var wire 10 p ctl [9:0] $end
    $var wire  1 + jump $end
    $var wire  1 ( memRead $end
    $var wire  1 ) memWrite $end
    $var wire  1 * memtoReg $end
    $var wire  7 o opcode [6:0] $end
    $var wire  1 % regWrite $end
   $upscope $end
   $scope module m_DataMemory $end
    $var wire 32 S address [31:0] $end
    $var wire  1 ?! clk $end
    $var wire  1 M memRead $end
    $var wire  1 O memWrite $end
    $var wire 32 a! readData [31:0] $end
    $var wire  1 @! rst $end
    $var wire 32 T writeData [31:0] $end
   $upscope $end
   $scope module m_ImmGen $end
    $var wire 32 5 imm [31:0] $end
    $var wire 32 = inst [31:0] $end
    $var wire  7 o opcode [6:0] $end
   $upscope $end
   $scope module m_InstMem $end
    $var wire 32 $ inst [31:0] $end
    $var wire 32 # readAddr [31:0] $end
   $upscope $end
   $scope module m_Mux_ALU $end
    $var wire 32 . out [31:0] $end
    $var wire 32 G s0 [31:0] $end
    $var wire 32 H s1 [31:0] $end
    $var wire  1 B sel $end
    $var wire 32 g! size [31:0] $end
   $upscope $end
   $scope module m_Mux_JUMP $end
    $var wire 32 0 out [31:0] $end
    $var wire 32 / s0 [31:0] $end
    $var wire 32 7 s1 [31:0] $end
    $var wire  1 , sel $end
    $var wire 32 g! size [31:0] $end
   $upscope $end
   $scope module m_Mux_PC $end
    $var wire 32 / out [31:0] $end
    $var wire 32 3 s0 [31:0] $end
    $var wire 32 R s1 [31:0] $end
    $var wire  1 : sel $end
    $var wire 32 g! size [31:0] $end
   $upscope $end
   $scope module m_Mux_WriteData $end
    $var wire 32 1 out [31:0] $end
    $var wire 32 X s0 [31:0] $end
    $var wire 32 Y s1 [31:0] $end
    $var wire  1 V sel $end
    $var wire 32 g! size [31:0] $end
   $upscope $end
   $scope module m_Mux_jump $end
    $var wire 32 2 out [31:0] $end
    $var wire 32 1 s0 [31:0] $end
    $var wire 32 3 s1 [31:0] $end
    $var wire  1 + sel $end
    $var wire 32 g! size [31:0] $end
   $upscope $end
   $scope module m_PC $end
    $var wire  1 ?! clk $end
    $var wire 32 0 pc_i [31:0] $end
    $var wire 32 # pc_o [31:0] $end
    $var wire  1 @! rst $end
   $upscope $end
   $scope module m_Register $end
    $var wire  1 ?! clk $end
    $var wire 32 s readData1 [31:0] $end
    $var wire 32 t readData2 [31:0] $end
    $var wire  5 q readReg1 [4:0] $end
    $var wire  5 r readReg2 [4:0] $end
    $var wire  1 W regWrite $end
    $var wire 32 } regs[0] [31:0] $end
    $var wire 32 )! regs[10] [31:0] $end
    $var wire 32 *! regs[11] [31:0] $end
    $var wire 32 +! regs[12] [31:0] $end
    $var wire 32 ,! regs[13] [31:0] $end
    $var wire 32 -! regs[14] [31:0] $end
    $var wire 32 .! regs[15] [31:0] $end
    $var wire 32 /! regs[16] [31:0] $end
    $var wire 32 0! regs[17] [31:0] $end
    $var wire 32 1! regs[18] [31:0] $end
    $var wire 32 2! regs[19] [31:0] $end
    $var wire 32 ~ regs[1] [31:0] $end
    $var wire 32 3! regs[20] [31:0] $end
    $var wire 32 4! regs[21] [31:0] $end
    $var wire 32 5! regs[22] [31:0] $end
    $var wire 32 6! regs[23] [31:0] $end
    $var wire 32 7! regs[24] [31:0] $end
    $var wire 32 8! regs[25] [31:0] $end
    $var wire 32 9! regs[26] [31:0] $end
    $var wire 32 :! regs[27] [31:0] $end
    $var wire 32 ;! regs[28] [31:0] $end
    $var wire 32 <! regs[29] [31:0] $end
    $var wire 32 !! regs[2] [31:0] $end
    $var wire 32 =! regs[30] [31:0] $end
    $var wire 32 >! regs[31] [31:0] $end
    $var wire 32 "! regs[3] [31:0] $end
    $var wire 32 #! regs[4] [31:0] $end
    $var wire 32 $! regs[5] [31:0] $end
    $var wire 32 %! regs[6] [31:0] $end
    $var wire 32 &! regs[7] [31:0] $end
    $var wire 32 '! regs[8] [31:0] $end
    $var wire 32 (! regs[9] [31:0] $end
    $var wire  1 @! rst $end
    $var wire 32 2 writeData [31:0] $end
    $var wire  5 Z writeReg [4:0] $end
   $upscope $end
   $scope module m_ShiftLeftOne $end
    $var wire 32 H i [31:0] $end
    $var wire 32 6 o [31:0] $end
   $upscope $end
  $upscope $end
 $upscope $end
$enddefinitions $end


#0
b00000000000000000000000000000000 #
b00000010000100000000000110010011 $
0%
0&
0'
0(
0)
0*
0+
0,
b00 -
b00000000000000000000000000000000 .
b00000000000000000000000000000100 /
b00000000000000000000000000000100 0
b00000000000000000000000000000000 1
b00000000000000000000000000000000 2
b00000000000000000000000000000100 3
b00000000000000000000000000000000 4
b00000000000000000000000000000000 5
b00000000000000000000000000000000 6
b00000000000000000000000000000000 7
18
09
0:
b0010 ;
b00000000000000000000000000000000 <
b00000000000000000000000000000000 =
0>
0?
0@
0A
0B
0C
b00 D
b00000000000000000000000000000000 E
b00000000000000000000000000000000 F
b00000000000000000000000000000000 G
b00000000000000000000000000000000 H
0I
b000 J
b00000 K
0L
0M
0N
0O
0P
0Q
b00000000000000000000000000000000 R
b00000000000000000000000000000000 S
b00000000000000000000000000000000 T
b00000 U
0V
0W
b00000000000000000000000000000000 X
b00000000000000000000000000000000 Y
b00000 Z
b00000000000000000000000000000000000001000000000000000000000000000000000000000000000000000000000000000000000 [
b00000000000000000000000000000000000000000000000000000000000000000000000000000000000000000000000000000000000 _
b0000000000000000000000000000000000000000000000000000000000000000000000000000000000000000000000000000000000000000000000000000000000000000000000000 c
b0000000000000000000000000000000000000010000100000000000110010011 h
b0000000000000000000000000000000000000000000000000000000000000000 j
b00000000000000000000000000000000000000000000000000000000000000000000000 l
b0000000 o
b0000000000 p
b00000 q
b00000 r
b00000000000000000000000000000000 s
b00000000000000000000000000000000 t
b0000000000000000000000000000000000000000000000000000000000000000000000000000000000000000000000000000000000000000000000000000000000000000000000000 u
b00000000000000000000000000000000000000000000000000000000000000000000000 z
b00000000000000000000000000000000 }
b00000000000000000000000000000000 ~
b00000000000000000000000000000000 !!
b00000000000000000000000000000000 "!
b00000000000000000000000000000000 #!
b00000000000000000000000000000000 $!
b00000000000000000000000000000000 %!
b00000000000000000000000000000000 &!
b00000000000000000000000000000000 '!
b00000000000000000000000000000000 (!
b00000000000000000000000000000000 )!
b00000000000000000000000000000000 *!
b00000000000000000000000000000000 +!
b00000000000000000000000000000000 ,!
b00000000000000000000000000000000 -!
b00000000000000000000000000000000 .!
b00000000000000000000000000000000 /!
b00000000000000000000000000000000 0!
b00000000000000000000000000000000 1!
b00000000000000000000000000000000 2!
b00000000000000000000000000000000 3!
b00000000000000000000000000000000 4!
b00000000000000000000000000000000 5!
b00000000000000000000000000000000 6!
b00000000000000000000000000000000 7!
b00000000000000000000000000000000 8!
b00000000000000000000000000000000 9!
b00000000000000000000000000000000 :!
b00000000000000000000000000000000 ;!
b00000000000000000000000000000000 <!
b00000000000000000000000000000000 =!
b00000000000000000000000000000000 >!
0?!
1@!
b00000000000000000000000000000000 A!
b00000000000000000000000000000000 B!
b00000000000000000000000000000000 C!
b00000000000000000000000000000000 D!
b00000000000000000000000000000000 E!
b00000000000000000000000000000000 F!
b00000000000000000000000000000000 G!
b00000000000000000000000000000000 H!
b00000000000000000000000000000000 I!
b00000000000000000000000000000000 J!
b00000000000000000000000000000000 K!
b00000000000000000000000000000000 L!
b00000000000000000000000000000000 M!
b00000000000000000000000000000000 N!
b00000000000000000000000000000000 O!
b00000000000000000000000000000000 P!
b00000000000000000000000000000000 Q!
b00000000000000000000000000000000 R!
b00000000000000000000000000000000 S!
b00000000000000000000000000000000 T!
b00000000000000000000000000000000 U!
b00000000000000000000000000000000 V!
b00000000000000000000000000000000 W!
b00000000000000000000000000000000 X!
b00000000000000000000000000000000 Y!
b00000000000000000000000000000000 Z!
b00000000000000000000000000000000 [!
b00000000000000000000000000000000 \!
b00000000000000000000000000000000 ]!
b00000000000000000000000000000000 ^!
b00000000000000000000000000000000 _!
b00000000000000000000000000000000 `!
b00000000000000000000000000000000 a!
b00000000000000000000000001101011 b!
b00000000000000000000000010010001 c!
b00000000000000000000000001000000 d!
b00000000000000000000000001000111 e!
b00000000000000000000000000000100 f!
b00000000000000000000000000100000 g!
#1
b00000000000000000000000010000000 !!
1?!
0@!
b00000000000000000000000010000000 C!
#2
0?!
1@!
#3
b00000000000000000000000000000100 #
b00000000000000000000000000010011 $
1%
1'
b11 -
b00000000000000000000000000001000 /
b00000000000000000000000000001000 0
b00000000000000000000000000001000 3
b00000000000000000000000000100001 5
b00000010000100000000000110010011 =
1Q
b00000000000000000000000000000000000001000000000000000000000000000000000000000000000000000000000000000000000 _
b0000000000000000000000000000010000000000000000000000000000010011 h
b0000000000000000000000000000000000000010000100000000000110010011 j
b0010011 o
b1010001100 p
b00001 r
b0001101100000000000000000000000000000000000000000000000000000000000000000000000000000000000000000000000000000000000000000000000000100001000000011 u
1?!
#4
0?!
#5
b00000000000000000000000000001000 #
b00000000000000000000000000100001 .
b00000000000000000000000000001100 /
b00000000000000000000000000001100 0
b00000000000000000000000000001100 3
b00000000000000000000000001000010 4
b00000000000000000000000000000000 5
b00000000000000000000000001000010 6
b00000000000000000000000000100001 7
08
b00000000000000000000000000000100 <
b00000000000000000000000000010011 =
1B
1C
b11 D
b00000000000000000000000000100001 H
b00011 K
b00001000000000000000000000000010000100000000000000000000000000001000010000000000000000000000000000000000011 [
b0001101100000000000000000000000000000000000000000000000000000000000000000000000000000000000000000000000000000000000000000000000000100001000000011 c
b0000000000000000000000000000100000000000000000000000000000010011 h
b0000000000000000000000000000010000000000000000000000000000010011 j
b00000 r
b0001101100000000000000000000000000000100000000000000000000000000000000000000000000000000000000000000000000000000000000000000000000000000000000000 u
1?!
#6
0?!
#7
b00000000000000000000000000001100 #
b00000000000000000000000000000000 .
b00000000000000000000000000010000 /
b00000000000000000000000000010000 0
b00000000000000000000000000010000 3
b00000000000000000000000000000100 4
b00000000000000000000000000000000 6
b00000000000000000000000000000000 7
18
b00000000000000000000000000001000 <
b00000000000000000000000000000100 E
b00000000000000000000000000000000 H
b00000 K
1P
0Q
b00000000000000000000000001000010 R
b00000000000000000000000000100001 S
b00011 U
b00001000000000000000000000000000001001000000000000000000000000000000000000000000000000000000000000000000000 [
b00001000000000000000000000000010000100000000000000000000000000001000010000000000000000000000000000000000011 _
b0001101100000000000000000000000000000100000000000000000000000000000000000000000000000000000000000000000000000000000000000000000000000000000000000 c
b0000000000000000000000000000110000000000000000000000000000010011 h
b0000000000000000000000000000100000000000000000000000000000010011 j
b0001101100000000000000000000000000001000000000000000000000000000000000000000000000000000000000000000000000000000000000000000000000000000000000000 u
b01000000000000000000000000001000010000000000000000000000000000000000011 z
1?!
#8
0?!
#9
b00000000000000000000000000010000 #
b00000000000000000000000000010100 /
b00000000000000000000000000010100 0
b00000000000000000000000000100001 1
b00000000000000000000000000100001 2
b00000000000000000000000000010100 3
b00000000000000000000000000001000 4
b00000000000000000000000000001100 <
b00000000000000000000000000001000 E
1Q
b00000000000000000000000000000100 R
b00000000000000000000000000000000 S
b00000 U
1W
b00000000000000000000000000100001 X
b00011 Z
b00001000000000000000000000000000010001000000000000000000000000000000000000000000000000000000000000000000000 [
b00001000000000000000000000000000001001000000000000000000000000000000000000000000000000000000000000000000000 _
b0001101100000000000000000000000000001000000000000000000000000000000000000000000000000000000000000000000000000000000000000000000000000000000000000 c
b0000000000000000000000000001000000000000000000000000000000010011 h
b0000000000000000000000000000110000000000000000000000000000010011 j
b01000000000000000000000000001000010000000000000000000000000000000000011 l
b0001101100000000000000000000000000001100000000000000000000000000000000000000000000000000000000000000000000000000000000000000000000000000000000000 u
b01000000000000000000000000000000000000000000000000000000000000000000000 z
1?!
#10
b00000000000000000000000000100001 "!
0?!
b00000000000000000000000000100001 D!
#11
b00000000000000000000000000010100 #
b11100100111000000000001000010011 $
b00000000000000000000000000011000 /
b00000000000000000000000000011000 0
b00000000000000000000000000000000 1
b00000000000000000000000000000000 2
b00000000000000000000000000011000 3
b00000000000000000000000000001100 4
b00000000000000000000000000010000 <
b00000000000000000000000000001100 E
b00000000000000000000000000001000 R
b00000000000000000000000000000000 X
b00000 Z
b00001000000000000000000000000000011001000000000000000000000000000000000000000000000000000000000000000000000 [
b00001000000000000000000000000000010001000000000000000000000000000000000000000000000000000000000000000000000 _
b0001101100000000000000000000000000001100000000000000000000000000000000000000000000000000000000000000000000000000000000000000000000000000000000000 c
b0000000000000000000000000001010011100100111000000000001000010011 h
b0000000000000000000000000001000000000000000000000000000000010011 j
b01000000000000000000000000000000000000000000000000000000000000000000000 l
b0001101100000000000000000000000000010000000000000000000000000000000000000000000000000000000000000000000000000000000000000000000000000000000000000 u
1?!
#12
0?!
#13
b00000000000000000000000000011000 #
b00000000000000000000000000010011 $
b00000000000000000000000000011100 /
b00000000000000000000000000011100 0
b00000000000000000000000000011100 3
b00000000000000000000000000010000 4
b11111111111111111111111001001110 5
b00000000000000000000000000010100 <
b11100100111000000000001000010011 =
b00000000000000000000000000010000 E
b00000000000000000000000000001100 R
b00001000000000000000000000000000100001000000000000000000000000000000000000000000000000000000000000000000000 [
b00001000000000000000000000000000011001000000000000000000000000000000000000000000000000000000000000000000000 _
b0001101100000000000000000000000000010000000000000000000000000000000000000000000000000000000000000000000000000000000000000000000000000000000000000 c
b0000000000000000000000000001100000000000000000000000000000010011 h
b0000000000000000000000000001010011100100111000000000001000010011 j
b01110 r
b0001101100000000000000000000000000010100000000000000000000000000000000000000000000000000000000000000000011111111111111111111111001001110100000100 u
1?!
#14
0?!
#15
b00000000000000000000000000011100 #
b11111111111111111111111001001110 .
b00000000000000000000000000100000 /
b00000000000000000000000000100000 0
b00000000000000000000000000100000 3
b11111111111111111111110010110000 4
b00000000000000000000000000000000 5
b11111111111111111111110010011100 6
b11111111111111111111111001001110 7
08
b00000000000000000000000000011000 <
b00000000000000000000000000010011 =
b00000000000000000000000000010100 E
b11111111111111111111111001001110 H
1I
b00100 K
b00000000000000000000000000010000 R
b00001111111111111111111111100101100000111111111111111111111110010011100000000000000000000000000000000000100 [
b00001000000000000000000000000000100001000000000000000000000000000000000000000000000000000000000000000000000 _
b0001101100000000000000000000000000010100000000000000000000000000000000000000000000000000000000000000000011111111111111111111111001001110100000100 c
b0000000000000000000000000001110000000000000000000000000000010011 h
b0000000000000000000000000001100000000000000000000000000000010011 j
b00000 r
b0001101100000000000000000000000000011000000000000000000000000000000000000000000000000000000000000000000000000000000000000000000000000000000000000 u
1?!
#16
0?!
#17
b00000000000000000000000000100000 #
b00000000000000000000000000000000 .
b00000000000000000000000000100100 /
b00000000000000000000000000100100 0
b00000000000000000000000000100100 3
b00000000000000000000000000011000 4
b00000000000000000000000000000000 6
b00000000000000000000000000000000 7
18
b00000000000000000000000000011100 <
b00000000000000000000000000011000 E
b00000000000000000000000000000000 H
0I
b00000 K
0Q
b11111111111111111111110010110000 R
b11111111111111111111111001001110 S
b00100 U
b00001000000000000000000000000000110001000000000000000000000000000000000000000000000000000000000000000000000 [
b00001111111111111111111111100101100000111111111111111111111110010011100000000000000000000000000000000000100 _
b0001101100000000000000000000000000011000000000000000000000000000000000000000000000000000000000000000000000000000000000000000000000000000000000000 c
b0000000000000000000000000010000000000000000000000000000000010011 h
b0000000000000000000000000001110000000000000000000000000000010011 j
b0001101100000000000000000000000000011100000000000000000000000000000000000000000000000000000000000000000000000000000000000000000000000000000000000 u
b01111111111111111111111110010011100000000000000000000000000000000000100 z
1?!
#18
0?!
#19
b00000000000000000000000000100100 #
b00000000000000000000000000101000 /
b00000000000000000000000000101000 0
b11111111111111111111111001001110 1
b11111111111111111111111001001110 2
b00000000000000000000000000101000 3
b00000000000000000000000000011100 4
b00000000000000000000000000100000 <
b00000000000000000000000000011100 E
1Q
b00000000000000000000000000011000 R
b00000000000000000000000000000000 S
b00000 U
b11111111111111111111111001001110 X
b00100 Z
b00001000000000000000000000000000111001000000000000000000000000000000000000000000000000000000000000000000000 [
b00001000000000000000000000000000110001000000000000000000000000000000000000000000000000000000000000000000000 _
b0001101100000000000000000000000000011100000000000000000000000000000000000000000000000000000000000000000000000000000000000000000000000000000000000 c
b0000000000000000000000000010010000000000000000000000000000010011 h
b0000000000000000000000000010000000000000000000000000000000010011 j
b01111111111111111111111110010011100000000000000000000000000000000000100 l
b0001101100000000000000000000000000100000000000000000000000000000000000000000000000000000000000000000000000000000000000000000000000000000000000000 u
b01000000000000000000000000000000000000000000000000000000000000000000000 z
1?!
#20
b11111111111111111111111001001110 #!
0?!
b11111111111111111111111001001110 E!
#21
b00000000000000000000000000101000 #
b00000000010000011000001010110011 $
b00000000000000000000000000101100 /
b00000000000000000000000000101100 0
b00000000000000000000000000000000 1
b00000000000000000000000000000000 2
b00000000000000000000000000101100 3
b00000000000000000000000000100000 4
b00000000000000000000000000100100 <
b00000000000000000000000000100000 E
b00000000000000000000000000011100 R
b00000000000000000000000000000000 X
b00000 Z
b00001000000000000000000000000001000001000000000000000000000000000000000000000000000000000000000000000000000 [
b00001000000000000000000000000000111001000000000000000000000000000000000000000000000000000000000000000000000 _
b0001101100000000000000000000000000100000000000000000000000000000000000000000000000000000000000000000000000000000000000000000000000000000000000000 c
b0000000000000000000000000010100000000000010000011000001010110011 h
b0000000000000000000000000010010000000000000000000000000000010011 j
b01000000000000000000000000000000000000000000000000000000000000000000000 l
b0001101100000000000000000000000000100100000000000000000000000000000000000000000000000000000000000000000000000000000000000000000000000000000000000 u
1?!
#22
0?!
#23
b00000000000000000000000000101100 #
b00000000000000000000000000010011 $
0'
b10 -
b00000000000000000000000000110000 /
b00000000000000000000000000110000 0
b00000000000000000000000000110000 3
b00000000000000000000000000100100 4
b00000000000000000000000000101000 <
b00000000010000011000001010110011 =
b00000000000000000000000000100100 E
b00000000000000000000000000100000 R
b00001000000000000000000000000001001001000000000000000000000000000000000000000000000000000000000000000000000 [
b00001000000000000000000000000001000001000000000000000000000000000000000000000000000000000000000000000000000 _
b0001101100000000000000000000000000100100000000000000000000000000000000000000000000000000000000000000000000000000000000000000000000000000000000000 c
b0000000000000000000000000010110000000000000000000000000000010011 h
b0000000000000000000000000010100000000000010000011000001010110011 j
b0110011 o
b0010001000 p
b00011 q
b00100 r
b00000000000000000000000000100001 s
b11111111111111111111111001001110 t
b0001000100000000000000000000000000101000000000000000000000000000001000011111111111111111111111100100111000000000000000000000000000000000000000101 u
1?!
#24
0?!
#25
b00000000000000000000000000110000 #
1'
b11 -
b11111111111111111111111001001110 .
b00000000000000000000000000110100 /
b00000000000000000000000000110100 0
b00000000000000000000000000110100 3
b00000000000000000000000000101000 4
b11111111111111111111111001101111 7
08
b00000000000000000000000000101100 <
b00000000000000000000000000010011 =
0B
b10 D
b00000000000000000000000000101000 E
b00000000000000000000000000100001 F
b11111111111111111111111001001110 G
b00101 K
b00000000000000000000000000100100 R
b00001000000000000000000000000001010000111111111111111111111110011011111111111111111111111111100100111000101 [
b00001000000000000000000000000001001001000000000000000000000000000000000000000000000000000000000000000000000 _
b0001000100000000000000000000000000101000000000000000000000000000001000011111111111111111111111100100111000000000000000000000000000000000000000101 c
b0000000000000000000000000011000000000000000000000000000000010011 h
b0000000000000000000000000010110000000000000000000000000000010011 j
b0010011 o
b1010001100 p
b00000 q
b00000 r
b00000000000000000000000000000000 s
b00000000000000000000000000000000 t
b0001101100000000000000000000000000101100000000000000000000000000000000000000000000000000000000000000000000000000000000000000000000000000000000000 u
1?!
#26
0?!
#27
b00000000000000000000000000110100 #
b00000000000000000000000000000000 .
b00000000000000000000000000111000 /
b00000000000000000000000000111000 0
b00000000000000000000000000111000 3
b00000000000000000000000000101100 4
b00000000000000000000000000000000 7
18
b00000000000000000000000000110000 <
1B
b11 D
b00000000000000000000000000101100 E
b00000000000000000000000000000000 F
b00000000000000000000000000000000 G
b00000 K
0Q
b00000000000000000000000000101000 R
b11111111111111111111111001101111 S
b11111111111111111111111001001110 T
b00101 U
b00001000000000000000000000000001011001000000000000000000000000000000000000000000000000000000000000000000000 [
b00001000000000000000000000000001010000111111111111111111111110011011111111111111111111111111100100111000101 _
b0001101100000000000000000000000000101100000000000000000000000000000000000000000000000000000000000000000000000000000000000000000000000000000000000 c
b0000000000000000000000000011010000000000000000000000000000010011 h
b0000000000000000000000000011000000000000000000000000000000010011 j
b0001101100000000000000000000000000110000000000000000000000000000000000000000000000000000000000000000000000000000000000000000000000000000000000000 u
b01111111111111111111111110011011110000000000000000000000000000000000101 z
1?!
#28
0?!
#29
b00000000000000000000000000111000 #
b00000000000000000000000000111100 /
b00000000000000000000000000111100 0
b11111111111111111111111001101111 1
b11111111111111111111111001101111 2
b00000000000000000000000000111100 3
b00000000000000000000000000110000 4
b00000000000000000000000000110100 <
b00000000000000000000000000110000 E
1Q
b00000000000000000000000000101100 R
b00000000000000000000000000000000 S
b00000000000000000000000000000000 T
b00000 U
b11111111111111111111111001101111 X
b00101 Z
b00001000000000000000000000000001100001000000000000000000000000000000000000000000000000000000000000000000000 [
b00001000000000000000000000000001011001000000000000000000000000000000000000000000000000000000000000000000000 _
b0001101100000000000000000000000000110000000000000000000000000000000000000000000000000000000000000000000000000000000000000000000000000000000000000 c
b0000000000000000000000000011100000000000000000000000000000010011 h
b0000000000000000000000000011010000000000000000000000000000010011 j
b01111111111111111111111110011011110000000000000000000000000000000000101 l
b0001101100000000000000000000000000110100000000000000000000000000000000000000000000000000000000000000000000000000000000000000000000000000000000000 u
b01000000000000000000000000000000000000000000000000000000000000000000000 z
1?!
#30
b11111111111111111111111001101111 $!
0?!
b11111111111111111111111001101111 F!
